<?xml version="1.0" encoding="utf-8"?>
<!-- Generator: Adobe Illustrator 15.1.0, SVG Export Plug-In . SVG Version: 6.00 Build 0)  -->
<!DOCTYPE svg PUBLIC "-//W3C//DTD SVG 1.1//EN" "http://www.w3.org/Graphics/SVG/1.1/DTD/svg11.dtd">
<svg version="1.1" id="Layer_1" xmlns="http://www.w3.org/2000/svg" xmlns:xlink="http://www.w3.org/1999/xlink" x="0px" y="0px"
	 width="145px" height="39.977px" viewBox="189.059 52.124 145 39.977" enable-background="new 189.059 52.124 145 39.977"
	 xml:space="preserve">
<path fill="#5C2D08" d="M308.066,80.695c-1.237,0.071-2.479,0.176-3.721,0.316c-0.023,0.011-0.042,0.023-0.066,0.035
	c-0.626,0.312-1.335,0.556-2.124,0.73c-0.791,0.175-1.581,0.263-2.37,0.263c-0.518,0-0.992-0.033-1.43-0.095
	c-6.246,1.252-12.132,3.305-16.592,5.883c8.045-1.622,17.353-3.185,26.056-3.345c0.021-0.65,0.054-1.346,0.103-2.098
	C307.956,81.839,308.006,81.274,308.066,80.695z"/>
<path fill="#5C2D08" d="M311.654,84.514c7.218,0.243,13.798,1.643,18.588,5.034c-0.352-1.937-0.596-2.978-0.769-4.976
	c-0.044-0.494-3.994-1.933-4.884-2.152c-3.689-1.216-8.011-1.784-12.546-1.823c-0.103,0.823-0.19,1.623-0.264,2.396
	C311.729,83.535,311.686,84.041,311.654,84.514z"/>
<path fill="#42852A" d="M236.132,68.858c0.154,0.058,0.327,0.086,0.52,0.086c0.713-0.039,1.287-0.207,1.72-0.505
	c0.433-0.299,0.766-0.631,0.997-0.998c0.231-0.366,0.385-0.732,0.463-1.099c0.077-0.366,0.115-0.636,0.115-0.809
	c0-0.193-0.067-0.347-0.202-0.462c-0.135-0.116-0.294-0.203-0.477-0.261s-0.38-0.096-0.592-0.116
	c-0.212-0.019-0.396-0.029-0.549-0.029c-0.328,0-0.626,0.053-0.896,0.16c-0.271,0.106-0.483,0.294-0.636,0.563
	c-0.116,0.212-0.227,0.458-0.333,0.737c-0.106,0.28-0.207,0.559-0.304,0.838c-0.096,0.28-0.178,0.535-0.246,0.766
	c-0.067,0.231-0.111,0.415-0.13,0.549c0,0.155,0.058,0.28,0.173,0.376C235.873,68.752,235.997,68.819,236.132,68.858z"/>
<path fill="#42852A" d="M241.321,78.065c-0.184-0.087-0.372-0.13-0.563-0.13c-0.212,0-0.372,0.033-0.478,0.102
	c-0.106,0.067-0.207,0.134-0.303,0.202c-0.097,0.066-0.217,0.136-0.361,0.202c-0.145,0.067-0.361,0.101-0.65,0.101
	c-0.598,0-1.026-0.202-1.287-0.605c-0.26-0.406-0.39-0.877-0.39-1.417c0-0.29,0.062-0.655,0.188-1.098
	c0.125-0.444,0.264-0.878,0.419-1.301c0.153-0.425,0.293-0.81,0.419-1.157c0.125-0.348,0.188-0.578,0.188-0.694
	c0-0.134-0.048-0.255-0.145-0.361c-0.097-0.105-0.25-0.159-0.462-0.159c-0.135,0-0.337,0.024-0.607,0.072
	c-0.27,0.048-0.56,0.116-0.867,0.203c-0.308,0.086-0.597,0.178-0.867,0.274c-0.271,0.096-0.482,0.183-0.636,0.26
	c-0.039,0.019-0.13,0.212-0.275,0.579c-0.144,0.366-0.294,0.834-0.448,1.402c-0.154,0.569-0.294,1.204-0.419,1.908
	c-0.125,0.703-0.207,1.412-0.246,2.123c-0.02,0.598,0.058,1.109,0.231,1.533c0.173,0.424,0.419,0.766,0.737,1.026
	c0.318,0.261,0.679,0.448,1.083,0.563c0.405,0.115,0.829,0.174,1.272,0.174c0.559,0,1.127-0.087,1.705-0.261s1.099-0.41,1.561-0.708
	s0.843-0.646,1.141-1.041c0.299-0.394,0.448-0.813,0.448-1.257C241.634,78.329,241.504,78.152,241.321,78.065z"/>
<path fill="#42852A" d="M275.648,78.035c-0.271-0.184-0.56-0.332-0.867-0.448c-0.309-0.115-0.589-0.173-0.839-0.173
	c-0.386,0-0.8,0.101-1.242,0.303c-0.444,0.203-0.93,0.42-1.46,0.65c-0.53,0.231-1.123,0.448-1.777,0.65
	c-0.655,0.202-1.398,0.305-2.226,0.305c-0.849,0-1.571-0.106-2.168-0.318c-0.598-0.212-1.085-0.506-1.461-0.881
	c-0.375-0.378-0.649-0.825-0.823-1.346s-0.261-1.089-0.261-1.705c0-0.925,0.178-1.926,0.535-3.006
	c0.357-1.08,0.843-2.158,1.46-3.238c0.616-1.08,1.344-2.125,2.182-3.136c0.839-1.011,1.739-1.903,2.702-2.674
	c0.964-0.77,1.961-1.387,2.993-1.85c1.03-0.462,2.056-0.694,3.078-0.694c0.308,0,0.606,0.025,0.896,0.073s0.539,0.129,0.752,0.246
	c0.212,0.116,0.385,0.274,0.521,0.477c0.135,0.203,0.202,0.468,0.202,0.795c0,0.713-0.245,1.393-0.737,2.038
	c-0.491,0.646-1.094,1.214-1.806,1.705c-0.714,0.492-1.465,0.882-2.255,1.171c-0.791,0.289-1.484,0.434-2.082,0.434
	c-0.23,0-0.41-0.029-0.535-0.087s-0.244-0.086-0.359-0.086c-0.174,0-0.261,0.106-0.261,0.318c0,0.366,0.11,0.675,0.332,0.925
	c0.221,0.251,0.477,0.458,0.767,0.622c0.288,0.164,0.587,0.28,0.895,0.347c0.309,0.067,0.55,0.102,0.724,0.102
	c1.29-0.019,2.559-0.294,3.801-0.824c1.243-0.53,2.346-1.194,3.311-1.995c0.963-0.799,1.743-1.667,2.341-2.602
	c0.598-0.935,0.896-1.816,0.896-2.646c0-1.041-0.453-1.835-1.358-2.384c-0.906-0.549-2.428-0.824-4.566-0.824
	c-1.812,0-3.547,0.256-5.203,0.766c-1.658,0.511-3.195,1.2-4.611,2.067c-1.416,0.868-2.699,1.87-3.846,3.006
	c-1.146,1.137-2.124,2.341-2.933,3.614c-0.81,1.271-1.436,2.562-1.879,3.873c-0.443,1.311-0.665,2.563-0.665,3.757
	c0,0.659,0.077,1.284,0.216,1.884c-0.075,0.027-0.155,0.058-0.245,0.097c-0.289,0.125-0.607,0.26-0.954,0.405
	c-0.347,0.144-0.699,0.278-1.055,0.404c-0.357,0.126-0.689,0.188-0.998,0.188c-0.347,0-0.559-0.115-0.636-0.347
	c-0.078-0.231-0.116-0.424-0.116-0.578c0-0.23,0.029-0.448,0.087-0.65c0.057-0.202,0.116-0.404,0.173-0.605
	c0.058-0.204,0.116-0.41,0.173-0.622c0.058-0.212,0.087-0.453,0.087-0.724c0-0.289-0.058-0.521-0.173-0.694
	c-0.116-0.172-0.265-0.312-0.448-0.418s-0.395-0.178-0.636-0.217c-0.241-0.038-0.487-0.058-0.737-0.058
	c-0.54,0-1.127,0.139-1.764,0.419c-0.635,0.279-1.243,0.583-1.821,0.91c-0.578,0.328-1.084,0.632-1.518,0.911
	c-0.433,0.28-0.708,0.419-0.823,0.419c-0.154,0-0.231-0.087-0.231-0.261c0-0.115,0.033-0.264,0.101-0.448
	c0.067-0.184,0.14-0.385,0.217-0.607c0.077-0.221,0.145-0.457,0.203-0.707c0.057-0.25,0.086-0.491,0.086-0.724
	c0-0.212-0.034-0.409-0.101-0.592c-0.068-0.184-0.188-0.348-0.361-0.492s-0.41-0.26-0.708-0.347
	c-0.299-0.086-0.67-0.129-1.113-0.129c-1.041,0-1.841,0.125-2.399,0.375c-0.559,0.25-0.973,0.539-1.243,0.868
	c-0.308,0.366-0.481,0.78-0.521,1.242c0,0.271,0.062,0.517,0.188,0.737c0.125,0.223,0.323,0.333,0.593,0.333
	c0.231,0,0.506-0.077,0.823-0.231c0.318-0.154,0.641-0.23,0.969-0.23c0.424,0,0.728,0.105,0.911,0.317
	c0.183,0.212,0.274,0.472,0.274,0.78s-0.067,0.68-0.202,1.112c-0.135,0.435-0.285,0.863-0.448,1.286
	c-0.164,0.425-0.313,0.824-0.448,1.2s-0.202,0.681-0.202,0.911c0,0.347,0.153,0.598,0.462,0.751
	c0.308,0.154,0.607,0.232,0.896,0.232c0.27,0,0.501-0.049,0.694-0.146c0.192-0.097,0.337-0.184,0.433-0.261
	c0.097-0.097,0.356-0.332,0.781-0.707c0.424-0.376,0.886-0.781,1.387-1.216c0.501-0.433,0.978-0.818,1.431-1.155
	c0.453-0.337,0.756-0.506,0.91-0.506c0.271,0,0.439,0.063,0.506,0.188c0.067,0.127,0.102,0.294,0.102,0.506
	c0,0.539,0.015,1.012,0.044,1.416c0.029,0.405,0.105,0.743,0.231,1.012c0.125,0.271,0.313,0.473,0.564,0.607
	c0.25,0.134,0.597,0.202,1.04,0.202c0.675,0,1.392-0.115,2.153-0.347s1.465-0.525,2.11-0.882s1.181-0.742,1.604-1.157
	c0.078-0.075,0.146-0.149,0.209-0.223c0.34,0.677,0.804,1.283,1.396,1.813c0.742,0.664,1.687,1.185,2.833,1.561
	c1.147,0.376,2.519,0.563,4.119,0.563c1.194,0,2.37-0.126,3.526-0.376c1.157-0.25,2.193-0.554,3.108-0.91s1.651-0.728,2.211-1.113
	c0.559-0.386,0.839-0.703,0.839-0.954c0-0.23-0.093-0.466-0.274-0.708C276.143,78.431,275.917,78.219,275.648,78.035z"/>
<path fill="#42852A" d="M302.155,81.777c0.789-0.175,1.498-0.419,2.124-0.73c0.024-0.012,0.043-0.024,0.066-0.035
	c0.595-0.305,1.081-0.656,1.451-1.06c0.385-0.419,0.579-0.87,0.579-1.353c0-0.481-0.3-0.723-0.896-0.723
	c-0.271,0-0.521,0.062-0.751,0.188c-0.232,0.125-0.493,0.271-0.782,0.434c-0.288,0.164-0.616,0.308-0.981,0.433
	c-0.366,0.126-0.81,0.188-1.329,0.188c-0.617,0-1.099-0.033-1.446-0.102c-0.347-0.066-0.598-0.148-0.751-0.244
	c-0.193-0.096-0.299-0.211-0.318-0.347c1.041-0.134,2.043-0.407,3.007-0.82c0.963-0.413,1.806-0.893,2.529-1.44
	c0.723-0.548,1.301-1.123,1.734-1.728c0.435-0.604,0.65-1.167,0.65-1.686c0-0.556-0.28-1.017-0.838-1.382
	c-0.56-0.365-1.494-0.548-2.804-0.548c-1.292,0-2.486,0.231-3.585,0.694c-1.099,0.462-2.048,1.055-2.848,1.778
	c-0.799,0.723-1.426,1.522-1.879,2.398c-0.453,0.878-0.679,1.721-0.679,2.53c0,0.028,0.003,0.058,0.004,0.087
	c-0.001,0-0.003,0-0.004,0c-0.097,0-0.193,0.009-0.289,0.028c-0.097,0.019-0.193,0.049-0.288,0.086
	c-0.116,0.039-0.28,0.073-0.492,0.102c-0.213,0.028-0.439,0.053-0.679,0.073c-0.241,0.019-0.473,0.033-0.695,0.042
	c-0.221,0.011-0.399,0.015-0.534,0.015c-0.193,0-0.386-0.043-0.579-0.13c-0.192-0.086-0.288-0.351-0.288-0.795
	c0-0.23,0.033-0.52,0.101-0.866c0.068-0.348,0.145-0.693,0.231-1.041c0.087-0.347,0.163-0.674,0.231-0.983
	c0.067-0.307,0.101-0.529,0.101-0.664c0-0.481-0.169-0.81-0.505-0.982c-0.338-0.173-0.728-0.261-1.171-0.261
	c-0.52,0-1.104,0.12-1.748,0.361c-0.646,0.241-1.286,0.525-1.923,0.853s-1.229,0.675-1.777,1.041
	c-0.55,0.365-0.988,0.684-1.315,0.953c-0.078,0.039-0.126,0.059-0.145,0.059c-0.077,0-0.116-0.077-0.116-0.232
	c0-0.153,0.024-0.438,0.072-0.853c0.047-0.414,0.12-0.91,0.217-1.488c1.252-0.56,2.524-1.276,3.815-2.153
	c1.29-0.876,2.466-1.85,3.526-2.919s1.927-2.197,2.602-3.382c0.674-1.185,1.012-2.356,1.012-3.513c0-0.771-0.327-1.392-0.983-1.864
	c-0.654-0.471-1.482-0.708-2.484-0.708c-1.505,0-2.838,0.372-4.005,1.113c-1.166,0.742-2.182,1.725-3.049,2.949
	c-0.868,1.224-1.6,2.621-2.196,4.191c-0.599,1.57-1.07,3.175-1.417,4.813c-0.617,0.154-1.248,0.279-1.894,0.375
	c-0.646,0.096-1.306,0.145-1.98,0.145c-0.153,0-0.278,0.082-0.375,0.246s-0.146,0.342-0.146,0.534c0,0.289,0.18,0.517,0.535,0.681
	c0.357,0.163,0.747,0.293,1.171,0.39c0.501,0.097,1.06,0.154,1.677,0.173c0.096,0,0.183,0,0.261,0c0.077,0,0.164-0.01,0.26-0.029
	c-0.154,1.041-0.266,2.053-0.332,3.036c-0.068,0.983-0.101,1.898-0.101,2.746c0,0.463,0.153,0.853,0.462,1.171
	c0.308,0.317,0.838,0.477,1.59,0.477c0.348,0,0.622-0.053,0.824-0.159c0.202-0.105,0.37-0.231,0.505-0.375
	c0.135-0.146,0.236-0.295,0.304-0.449c0.068-0.154,0.131-0.279,0.188-0.375c0.096-0.174,0.304-0.452,0.621-0.838
	c0.318-0.386,0.694-0.781,1.127-1.186c0.434-0.404,0.896-0.756,1.388-1.055s0.949-0.448,1.373-0.448c0.212,0,0.317,0.077,0.317,0.23
	c0,0.115-0.033,0.261-0.102,0.435c-0.066,0.173-0.144,0.375-0.23,0.605c-0.087,0.232-0.169,0.487-0.246,0.768
	c-0.077,0.278-0.115,0.573-0.115,0.881c0,0.694,0.261,1.205,0.78,1.532c0.521,0.328,1.117,0.492,1.793,0.492
	c0.442,0,1.001-0.082,1.676-0.246s1.325-0.386,1.952-0.665c0.625-0.279,1.165-0.597,1.617-0.954c0.127-0.1,0.233-0.199,0.325-0.299
	c0.197,0.341,0.463,0.649,0.803,0.921c0.434,0.347,0.992,0.621,1.677,0.824c0.31,0.091,0.649,0.159,1.013,0.209
	c0.438,0.061,0.913,0.095,1.431,0.095C300.575,82.039,301.364,81.951,302.155,81.777z M284.233,67.499
	c0.309-1.021,0.66-1.94,1.055-2.76c0.395-0.819,0.829-1.488,1.301-2.009c0.473-0.521,0.979-0.781,1.518-0.781
	c0.366,0,0.68,0.068,0.939,0.203c0.261,0.135,0.391,0.395,0.391,0.78c0,0.501-0.14,1.075-0.419,1.72
	c-0.28,0.646-0.68,1.311-1.199,1.994c-0.521,0.684-1.151,1.359-1.895,2.024c-0.741,0.665-1.575,1.277-2.5,1.835
	C283.655,69.523,283.924,68.521,284.233,67.499z M298.989,74.913c0.261-0.337,0.573-0.646,0.939-0.925s0.751-0.505,1.157-0.679
	c0.404-0.174,0.751-0.261,1.04-0.261c0.212,0,0.4,0.027,0.563,0.087c0.163,0.057,0.245,0.173,0.245,0.347
	c0,0.25-0.144,0.539-0.433,0.867c-0.289,0.327-0.641,0.627-1.056,0.896c-0.415,0.271-0.857,0.502-1.33,0.693
	c-0.472,0.193-0.881,0.289-1.228,0.289c-0.192,0-0.289-0.096-0.289-0.289C298.599,75.592,298.729,75.251,298.989,74.913z"/>
<path fill="#42852A" d="M311.78,82.992c0.073-0.771,0.162-1.571,0.265-2.394c0.114-0.925,0.248-1.879,0.4-2.867
	c0.25-0.019,0.511-0.033,0.78-0.043c0.271-0.01,0.559-0.015,0.868-0.015c0.501,0,0.919,0.005,1.257,0.015
	c0.337,0.01,0.641,0.015,0.911,0.015c0.27,0,0.535,0.006,0.795,0.015c0.259,0.01,0.572,0.014,0.939,0.014
	c0.269,0,0.462-0.115,0.578-0.346c0.115-0.231,0.173-0.482,0.173-0.752c0-0.135-0.028-0.288-0.087-0.462
	c-0.058-0.174-0.14-0.333-0.246-0.478c-0.105-0.145-0.245-0.265-0.418-0.36c-0.174-0.097-0.376-0.145-0.607-0.145
	c-0.502,0-1.013,0.023-1.532,0.072c-0.521,0.049-0.944,0.072-1.271,0.072c-0.154,0-0.279-0.049-0.376-0.146
	c-0.039-0.038-0.067-0.076-0.087-0.115c0.561-0.25,1.195-0.611,1.909-1.084c0.712-0.473,1.431-1.021,2.153-1.648
	c0.723-0.626,1.43-1.315,2.124-2.067c0.693-0.751,1.315-1.532,1.864-2.341c0.55-0.809,0.987-1.633,1.315-2.471
	c0.327-0.839,0.491-1.662,0.491-2.472c0-1.002-0.255-1.807-0.766-2.414s-1.238-0.91-2.182-0.91c-1.793,0-3.363,0.452-4.712,1.359
	c-1.35,0.906-2.511,2.091-3.483,3.555c-0.974,1.465-1.778,3.123-2.415,4.972c-0.636,1.85-1.147,3.728-1.531,5.637
	c-0.116,0.038-0.193,0.058-0.232,0.058c-0.173,0.039-0.38,0.111-0.62,0.217c-0.241,0.104-0.472,0.24-0.694,0.404
	c-0.221,0.165-0.403,0.343-0.549,0.535c-0.145,0.193-0.217,0.405-0.217,0.636c0,0.174,0.049,0.338,0.144,0.491
	c0.117,0.194,0.323,0.323,0.622,0.392c0.299,0.067,0.651,0.11,1.056,0.13c-0.139,0.916-0.246,1.796-0.333,2.645
	c-0.06,0.579-0.109,1.145-0.145,1.691c-0.048,0.751-0.081,1.446-0.103,2.097c-0.017,0.517-0.027,1.007-0.027,1.459
	c0,0.404,0.015,0.838,0.043,1.301c0.029,0.462,0.092,0.891,0.188,1.286c0.097,0.395,0.227,0.724,0.392,0.982
	c0.163,0.261,0.38,0.391,0.65,0.391c0.21,0,0.472-0.024,0.779-0.072c0.309-0.049,0.616-0.115,0.926-0.202
	c0.309-0.087,0.588-0.193,0.838-0.318c0.251-0.126,0.414-0.255,0.491-0.39c0.059-0.116,0.087-0.213,0.087-0.29
	c0-0.097-0.034-0.184-0.101-0.26c-0.068-0.077-0.14-0.174-0.217-0.289s-0.149-0.261-0.217-0.435
	c-0.068-0.173-0.102-0.404-0.102-0.692c0-0.671,0.035-1.486,0.105-2.44C311.686,84.041,311.729,83.535,311.78,82.992z
	 M314.237,68.973c0.367-1.31,0.756-2.472,1.171-3.483c0.414-1.012,0.853-1.816,1.316-2.414c0.462-0.597,0.944-0.896,1.445-0.896
	c0.442,0.039,0.746,0.169,0.911,0.391c0.163,0.222,0.245,0.496,0.245,0.824c0,0.694-0.136,1.464-0.405,2.312
	c-0.271,0.848-0.664,1.71-1.185,2.587c-0.521,0.877-1.157,1.73-1.908,2.559c-0.752,0.828-1.608,1.58-2.572,2.255
	C313.543,71.661,313.871,70.284,314.237,68.973z"/>
<path fill="#42852A" d="M330.221,72.28c-0.327-0.432-0.737-0.773-1.228-1.024c-0.491-0.25-1.045-0.375-1.662-0.375
	c-0.308,0-0.728,0.091-1.257,0.272c-0.531,0.182-1.104,0.411-1.721,0.688c-0.616,0.277-1.242,0.597-1.879,0.96
	c-0.637,0.362-1.215,0.722-1.735,1.075c-0.519,0.354-0.943,0.695-1.271,1.023c-0.329,0.327-0.492,0.606-0.492,0.838
	c0,0.097,0.024,0.222,0.072,0.375c0.049,0.154,0.125,0.309,0.23,0.463c0.106,0.153,0.228,0.284,0.361,0.39
	c0.136,0.106,0.289,0.16,0.463,0.16c0.058,0,0.222-0.072,0.492-0.218c0.269-0.144,0.603-0.331,0.996-0.563
	c0.396-0.23,0.819-0.471,1.271-0.722c0.453-0.25,0.887-0.492,1.302-0.723c0.414-0.232,0.781-0.42,1.099-0.564
	s0.524-0.217,0.621-0.217c0.751,0,1.319,0.222,1.705,0.666c0.386,0.442,0.578,0.934,0.578,1.473c0,0.56-0.206,1.065-0.621,1.519
	c-0.415,0.452-1.056,0.679-1.923,0.679c-0.462,0-0.824-0.072-1.084-0.216c-0.261-0.146-0.472-0.299-0.636-0.463
	c-0.164-0.163-0.309-0.318-0.434-0.462c-0.125-0.146-0.284-0.217-0.478-0.217c-0.25,0-0.51,0.092-0.779,0.273
	c-0.271,0.184-0.512,0.416-0.724,0.694c-0.212,0.279-0.39,0.568-0.535,0.867c-0.144,0.299-0.217,0.563-0.217,0.795
	c0,0.212,0.068,0.434,0.202,0.664c0.136,0.232,0.343,0.443,0.622,0.637c0.279,0.192,0.637,0.352,1.071,0.477
	c0.433,0.126,0.938,0.188,1.516,0.188c1.253,0,2.322-0.188,3.208-0.562c0.887-0.375,1.62-0.855,2.198-1.442
	c0.577-0.586,1.002-1.249,1.271-1.988c0.27-0.74,0.405-1.476,0.405-2.205c0-0.617-0.087-1.197-0.261-1.745
	C330.8,73.201,330.55,72.712,330.221,72.28z"/>
<g>
	<path fill="#60330F" d="M211.092,52.903c-10.609,0-19.209,8.6-19.209,19.209c0,10.609,8.6,19.209,19.209,19.209
		s19.21-8.601,19.21-19.209C230.302,61.503,221.701,52.903,211.092,52.903z M211.092,90.613c-10.218,0-18.5-8.283-18.5-18.5
		c0-10.218,8.283-18.501,18.5-18.501c10.217,0,18.501,8.283,18.501,18.501C229.593,82.329,221.31,90.613,211.092,90.613z"/>
	<path fill="#FBFAF8" d="M212.841,80.015c0.13-0.172,0.23-0.338,0.301-0.5c0.069-0.161,0.105-0.305,0.105-0.43
		c0-0.098-0.033-0.162-0.098-0.196c-0.065-0.034-0.144-0.051-0.235-0.051c-0.136,0-0.262,0.065-0.38,0.196
		c-0.119,0.13-0.227,0.297-0.326,0.503c-0.099,0.205-0.187,0.436-0.265,0.691c-0.077,0.257-0.145,0.507-0.203,0.753
		c0.232-0.14,0.441-0.293,0.626-0.459C212.553,80.355,212.711,80.187,212.841,80.015z"/>
	<path fill="#FBFAF8" d="M215.615,82.416c0.087,0,0.189-0.024,0.308-0.073c0.118-0.048,0.229-0.105,0.333-0.173
		c0.104-0.067,0.192-0.143,0.264-0.226c0.073-0.081,0.109-0.153,0.109-0.217c0-0.043-0.021-0.072-0.062-0.087
		c-0.041-0.014-0.088-0.021-0.141-0.021c-0.072,0-0.159,0.021-0.26,0.065c-0.102,0.043-0.199,0.1-0.291,0.17
		c-0.091,0.071-0.17,0.147-0.235,0.232c-0.065,0.084-0.098,0.17-0.098,0.257C215.542,82.392,215.567,82.416,215.615,82.416z"/>
	<path fill="#FBFAF8" d="M211.092,53.611c-10.218,0-18.5,8.283-18.5,18.501c0,10.217,8.283,18.5,18.5,18.5s18.501-8.283,18.501-18.5
		C229.593,61.894,221.31,53.611,211.092,53.611z M218.376,58.958c0.108,0.051,0.178,0.104,0.234,0.14
		c0.758,0.488,1.407,1.084,1.541,2.196c0,0.142,0,0.283,0,0.425c-0.256,2.171-1.721,3.694-4.286,3.224
		c1.631-0.026,2.776-0.861,3.4-1.984c0.35-0.628,0.464-1.444,0.23-2.196c-0.155-0.5-0.453-0.917-0.761-1.275
		C218.654,59.394,218.277,59.129,218.376,58.958z M215.14,68.964c-1.948-1.193-5.683-1.28-8.484-0.815
		c1.909-0.926,5.36-0.866,7.51-0.248c-0.028-1.687,0.479-2.839,1.044-3.932c-1.11-0.549-2.535-0.783-4.197-0.779
		c0.417-0.176,0.96-0.294,1.47-0.39c0.06-0.011,0.122-0.016,0.161-0.03c0.037-0.006,0.028-0.006,0.1-0.013
		c0.057-0.004,0.04-0.003,0.07-0.006c0.026-0.001,0.012-0.001,0.04-0.003c1.286-0.045,2.364,0.269,3.118,0.815
		C215.105,64.746,214.74,67.009,215.14,68.964z M214.071,70.115c-0.001,0.514-1.495,0.514-1.496,0
		c0.004-0.003,0.011-0.006,0.017-0.009c-0.283-0.011-0.56-0.016-0.809,0.006c-0.137,0.679-0.735,2.654,0.009,3.457
		c-1.21-0.152-0.59-2.825,0-3.502c-0.002,0.01-0.004,0.022-0.007,0.034c0.59-0.309,1.892-0.324,2.603-0.112
		c-0.105,0.049-0.228,0.082-0.36,0.104C214.043,70.099,214.059,70.106,214.071,70.115z M211.068,74.421
		c0.66-0.005,1.045,0.004,1.473,0c-0.265,0.361-1.882,0.221-2.494,0.113C209.197,74.385,210.537,74.425,211.068,74.421z
		 M208.731,70.109c-0.318-0.014-0.632-0.023-0.91,0.004c0.576-0.322,1.909-0.34,2.631-0.125c-0.073,0.034-0.154,0.06-0.239,0.08
		C210.149,70.522,208.867,70.535,208.731,70.109z M215.476,56.353c1.51,0.103,2.304,1.183,2.657,2.444
		c0.061,0.616-0.053,1.493-0.265,1.896c0.08-0.505,0.044-1.093-0.054-1.56l-0.103-0.326c-0.006-0.001-0.012-0.003-0.018-0.005
		c-0.049-0.077-0.04-0.098-0.074-0.165c-0.222-0.556-0.598-0.956-1.151-1.293c-0.979-0.597-2.722-0.386-3.914-0.106
		C213.333,56.771,214.248,56.269,215.476,56.353z M208.639,55.91c0.219,0,0.437,0,0.656,0c1.562,0.215,2.557,0.998,3.383,1.948
		c-0.794-0.628-1.629-1.238-2.94-1.311c-2.35-0.13-3.88,1.12-5.172,2.037C205.604,57.374,206.658,56.179,208.639,55.91z
		 M206.337,66.838c-0.037-0.219-0.096-0.715-0.142-0.761c0.012,0.012-0.041,0.014-0.035-0.018c-0.126-0.654-0.43-1.282-0.709-1.842
		c0.246-0.084,0.439-0.222,0.691-0.301c0.231,1.27,0.514,2.822,0.301,4.304C206.458,67.708,206.417,67.308,206.337,66.838z
		 M202.033,61.401c0.292-1.326,1.036-2.199,2.568-2.284c-0.024,0.089,0.03,0.1,0.106,0.088c-1.213,0.335-2.242,1.025-2.32,2.426
		c-0.027,0.501,0.161,0.928,0.408,1.204c0.5,0.561,1.486,0.912,2.426,1.01c0.121,0.013,0.25-0.037,0.354,0.071
		c-1.861,0.336-3.347-0.385-3.542-2.001C202.033,61.743,202.033,61.573,202.033,61.401z M199.786,80.287
		c0.017-0.059,0.037-0.123,0.062-0.193c0.024-0.069,0.05-0.14,0.076-0.21c0.027-0.069,0.055-0.131,0.083-0.184
		c0.039-0.068,0.091-0.115,0.159-0.143c0.067-0.026,0.143-0.039,0.225-0.039c0.039,0,0.084,0.002,0.138,0.007
		s0.102,0.015,0.148,0.029c0.046,0.015,0.085,0.036,0.12,0.065c0.033,0.029,0.05,0.068,0.05,0.116c0,0.043-0.01,0.111-0.029,0.202
		c-0.02,0.092-0.058,0.185-0.116,0.275c-0.058,0.092-0.141,0.175-0.25,0.25c-0.109,0.075-0.252,0.116-0.431,0.127
		c-0.048,0-0.092-0.008-0.13-0.022c-0.034-0.01-0.065-0.026-0.094-0.05c-0.029-0.024-0.043-0.056-0.043-0.095
		C199.758,80.39,199.769,80.344,199.786,80.287z M201.177,83.325c-0.075,0.098-0.171,0.185-0.286,0.26
		c-0.116,0.074-0.246,0.134-0.392,0.178c-0.145,0.043-0.287,0.065-0.427,0.065c-0.111,0-0.218-0.015-0.319-0.044
		c-0.101-0.028-0.191-0.076-0.271-0.141c-0.08-0.065-0.142-0.151-0.185-0.257c-0.043-0.106-0.062-0.234-0.058-0.384
		c0.009-0.179,0.03-0.356,0.062-0.533c0.031-0.176,0.066-0.336,0.105-0.478c0.039-0.143,0.076-0.26,0.112-0.352
		c0.036-0.091,0.059-0.14,0.069-0.146c0.039-0.019,0.092-0.04,0.159-0.064c0.068-0.024,0.14-0.048,0.218-0.068
		c0.077-0.022,0.149-0.039,0.217-0.051s0.118-0.019,0.152-0.019c0.053,0,0.091,0.014,0.116,0.04
		c0.024,0.027,0.036,0.057,0.036,0.091c0,0.028-0.016,0.087-0.047,0.173c-0.032,0.087-0.066,0.184-0.105,0.291
		c-0.039,0.105-0.074,0.215-0.105,0.325c-0.032,0.111-0.047,0.203-0.047,0.275c0,0.136,0.033,0.253,0.098,0.354
		s0.173,0.152,0.322,0.152c0.072,0,0.127-0.008,0.163-0.025c0.036-0.017,0.066-0.033,0.09-0.051c0.024-0.017,0.05-0.034,0.076-0.051
		c0.027-0.017,0.066-0.025,0.12-0.025c0.048,0,0.095,0.011,0.141,0.033c0.046,0.021,0.078,0.066,0.098,0.133
		C201.289,83.12,201.251,83.226,201.177,83.325z M209.821,83.445c-0.14,0.097-0.325,0.189-0.554,0.278
		c-0.229,0.09-0.489,0.166-0.779,0.229s-0.584,0.094-0.883,0.094c-0.401,0-0.745-0.047-1.032-0.141
		c-0.288-0.095-0.524-0.225-0.71-0.391c-0.148-0.134-0.264-0.285-0.35-0.455c-0.016,0.019-0.033,0.037-0.052,0.057
		c-0.106,0.104-0.24,0.2-0.402,0.289c-0.161,0.09-0.338,0.163-0.528,0.222c-0.19,0.057-0.371,0.087-0.539,0.087
		c-0.111,0-0.199-0.018-0.261-0.051c-0.063-0.034-0.11-0.085-0.142-0.153c-0.031-0.066-0.05-0.151-0.058-0.253
		s-0.011-0.219-0.011-0.354c0-0.053-0.008-0.096-0.025-0.127c-0.017-0.031-0.059-0.047-0.126-0.047
		c-0.039,0-0.115,0.042-0.228,0.127c-0.114,0.084-0.233,0.182-0.358,0.289c-0.126,0.108-0.241,0.21-0.348,0.304
		c-0.106,0.095-0.172,0.154-0.196,0.179c-0.024,0.019-0.06,0.04-0.108,0.065c-0.049,0.023-0.106,0.036-0.174,0.036
		c-0.072,0-0.147-0.02-0.225-0.059c-0.077-0.039-0.116-0.102-0.116-0.188c0-0.058,0.017-0.134,0.051-0.228
		c0.033-0.095,0.071-0.194,0.112-0.301s0.078-0.214,0.112-0.322c0.033-0.109,0.051-0.201,0.051-0.278s-0.023-0.144-0.069-0.196
		s-0.122-0.079-0.229-0.079c-0.082,0-0.163,0.019-0.242,0.057c-0.08,0.039-0.148,0.06-0.207,0.06c-0.067,0-0.116-0.028-0.148-0.084
		c-0.031-0.055-0.047-0.116-0.047-0.184c0.01-0.117,0.054-0.221,0.13-0.312c0.068-0.082,0.172-0.155,0.312-0.217
		c0.14-0.063,0.34-0.095,0.601-0.095c0.111,0,0.205,0.012,0.279,0.032c0.075,0.022,0.134,0.051,0.177,0.087
		c0.043,0.037,0.074,0.077,0.091,0.124c0.017,0.046,0.025,0.095,0.025,0.148c0,0.058-0.008,0.117-0.022,0.182
		c-0.015,0.062-0.031,0.121-0.051,0.177c-0.019,0.056-0.037,0.105-0.054,0.152c-0.017,0.046-0.025,0.083-0.025,0.112
		c0,0.043,0.02,0.065,0.058,0.065c0.029,0,0.098-0.036,0.207-0.105c0.108-0.07,0.235-0.146,0.38-0.229
		c0.145-0.082,0.297-0.158,0.456-0.228c0.16-0.069,0.307-0.105,0.442-0.105c0.062,0,0.124,0.005,0.184,0.015
		c0.061,0.01,0.114,0.027,0.16,0.054c0.045,0.026,0.083,0.062,0.112,0.106c0.029,0.042,0.043,0.101,0.043,0.174
		c0,0.067-0.007,0.127-0.022,0.181c-0.014,0.053-0.028,0.105-0.043,0.156c-0.014,0.05-0.028,0.101-0.042,0.151
		c-0.015,0.051-0.022,0.104-0.022,0.163c0,0.038,0.01,0.087,0.029,0.145c0.019,0.058,0.072,0.087,0.159,0.087
		c0.077,0,0.161-0.016,0.25-0.048c0.089-0.03,0.178-0.064,0.264-0.102c0.087-0.036,0.167-0.069,0.24-0.101
		c0.022-0.009,0.042-0.018,0.061-0.024c-0.034-0.15-0.054-0.307-0.054-0.472c0-0.299,0.055-0.612,0.166-0.942
		c0.111-0.327,0.268-0.651,0.471-0.97c0.203-0.319,0.448-0.621,0.735-0.906c0.287-0.283,0.608-0.534,0.963-0.752
		c0.355-0.217,0.74-0.391,1.156-0.518c0.415-0.129,0.85-0.192,1.303-0.192c0.536,0,0.917,0.068,1.145,0.206s0.34,0.337,0.34,0.598
		c0,0.207-0.075,0.429-0.225,0.663c-0.149,0.233-0.345,0.451-0.587,0.651c-0.242,0.201-0.518,0.367-0.829,0.5
		c-0.312,0.132-0.629,0.201-0.953,0.206c-0.043,0-0.104-0.008-0.181-0.025c-0.077-0.017-0.152-0.045-0.224-0.087
		c-0.072-0.041-0.136-0.093-0.192-0.155s-0.083-0.14-0.083-0.232c0-0.053,0.022-0.079,0.065-0.079c0.029,0,0.059,0.006,0.09,0.021
		c0.032,0.015,0.076,0.021,0.134,0.021c0.15,0,0.323-0.037,0.521-0.108c0.198-0.072,0.386-0.171,0.565-0.294
		c0.178-0.123,0.329-0.265,0.453-0.427c0.123-0.162,0.184-0.333,0.184-0.511c0-0.082-0.017-0.149-0.05-0.199
		c-0.034-0.051-0.077-0.091-0.131-0.119c-0.053-0.029-0.115-0.05-0.188-0.062c-0.072-0.012-0.147-0.019-0.225-0.019
		c-0.256,0-0.513,0.059-0.771,0.174c-0.258,0.117-0.508,0.271-0.75,0.464c-0.241,0.193-0.467,0.417-0.677,0.67
		s-0.392,0.516-0.547,0.786c-0.154,0.27-0.276,0.54-0.366,0.812c-0.089,0.27-0.134,0.521-0.134,0.753
		c0,0.154,0.022,0.297,0.066,0.427c0.043,0.13,0.112,0.242,0.206,0.338c0.094,0.093,0.216,0.167,0.366,0.221
		c0.15,0.053,0.331,0.079,0.543,0.079c0.208,0,0.394-0.025,0.558-0.076c0.164-0.05,0.312-0.105,0.445-0.162
		c0.132-0.059,0.254-0.112,0.365-0.163s0.215-0.076,0.312-0.076c0.062,0,0.133,0.015,0.21,0.043c0.077,0.029,0.15,0.067,0.217,0.112
		c0.067,0.047,0.125,0.1,0.17,0.16s0.069,0.118,0.069,0.177C210.031,83.268,209.96,83.348,209.821,83.445z M218.813,85.278
		c0.017,0.042,0.035,0.079,0.054,0.107c0.019,0.029,0.038,0.054,0.054,0.072c0.017,0.02,0.025,0.041,0.025,0.065
		c0,0.02-0.007,0.044-0.021,0.072c-0.02,0.034-0.061,0.066-0.124,0.098s-0.133,0.059-0.21,0.079
		c-0.077,0.022-0.154,0.039-0.231,0.051c-0.078,0.013-0.143,0.019-0.196,0.019c-0.067,0-0.122-0.032-0.163-0.098
		c-0.041-0.064-0.073-0.147-0.097-0.246c-0.024-0.1-0.04-0.206-0.047-0.322c-0.007-0.116-0.011-0.225-0.011-0.326
		c0-0.113,0.002-0.235,0.007-0.365c-2.181,0.039-4.513,0.432-6.529,0.838c1.118-0.646,2.593-1.159,4.158-1.474
		c-0.091-0.013-0.176-0.029-0.253-0.053c-0.172-0.051-0.312-0.119-0.42-0.206c-0.085-0.068-0.152-0.146-0.202-0.231
		c-0.022,0.025-0.049,0.051-0.081,0.075c-0.113,0.09-0.249,0.17-0.405,0.239c-0.157,0.07-0.32,0.125-0.489,0.167
		c-0.169,0.041-0.309,0.062-0.42,0.062c-0.169,0-0.318-0.042-0.449-0.123c-0.13-0.083-0.195-0.211-0.195-0.385
		c0-0.076,0.01-0.15,0.029-0.221c0.02-0.069,0.04-0.134,0.062-0.191c0.021-0.059,0.041-0.109,0.058-0.152
		c0.017-0.044,0.025-0.079,0.025-0.108c0-0.039-0.026-0.058-0.08-0.058c-0.106,0-0.221,0.037-0.344,0.112s-0.239,0.163-0.348,0.264
		c-0.109,0.102-0.203,0.201-0.283,0.297c-0.08,0.097-0.132,0.167-0.156,0.21c-0.014,0.024-0.03,0.056-0.047,0.095
		s-0.042,0.076-0.076,0.112c-0.034,0.036-0.076,0.067-0.127,0.094s-0.12,0.039-0.207,0.039c-0.188,0-0.321-0.039-0.398-0.118
		c-0.078-0.08-0.116-0.178-0.116-0.295c0-0.212,0.009-0.44,0.025-0.688c0.017-0.245,0.044-0.5,0.083-0.76
		c-0.024,0.005-0.046,0.007-0.065,0.007c-0.02,0-0.041,0-0.065,0c-0.155-0.005-0.295-0.019-0.42-0.043
		c-0.106-0.024-0.205-0.058-0.293-0.098c-0.09-0.041-0.134-0.098-0.134-0.171c0-0.049,0.012-0.093,0.036-0.134
		s0.056-0.062,0.094-0.062c0.169,0,0.334-0.012,0.496-0.036c0.162-0.024,0.32-0.056,0.475-0.095c0.087-0.41,0.206-0.812,0.355-1.205
		c0.15-0.395,0.333-0.744,0.55-1.05c0.217-0.308,0.472-0.553,0.764-0.739c0.292-0.186,0.626-0.279,1.004-0.279
		c0.25,0,0.458,0.06,0.622,0.178c0.165,0.118,0.247,0.274,0.247,0.467c0,0.29-0.084,0.584-0.254,0.88
		c-0.169,0.297-0.386,0.58-0.651,0.848c-0.265,0.27-0.561,0.513-0.883,0.732c-0.324,0.219-0.643,0.399-0.956,0.539
		c-0.024,0.145-0.042,0.269-0.055,0.373c-0.012,0.104-0.018,0.175-0.018,0.214s0.009,0.058,0.029,0.058
		c0.005,0,0.016-0.005,0.037-0.015c0.082-0.067,0.191-0.147,0.329-0.239c0.138-0.091,0.286-0.178,0.446-0.261
		c0.16-0.082,0.32-0.152,0.482-0.213c0.162-0.062,0.308-0.091,0.438-0.091c0.11,0,0.208,0.021,0.293,0.064
		c0.084,0.044,0.126,0.126,0.126,0.247c0,0.033-0.008,0.09-0.025,0.166c-0.017,0.077-0.037,0.16-0.058,0.247
		c-0.022,0.087-0.042,0.174-0.059,0.261c-0.017,0.087-0.025,0.158-0.025,0.217c0,0.111,0.024,0.177,0.073,0.199
		c0.048,0.021,0.096,0.033,0.145,0.033c0.034,0,0.079-0.003,0.134-0.005c0.056-0.002,0.113-0.005,0.174-0.011
		c0.061-0.005,0.117-0.01,0.17-0.018s0.094-0.016,0.123-0.025c0.024-0.01,0.049-0.017,0.073-0.022
		c0.023-0.004,0.048-0.006,0.072-0.006c0,0,0.001,0,0.001,0c0-0.008-0.001-0.016-0.001-0.022c0-0.202,0.057-0.414,0.17-0.634
		s0.271-0.42,0.471-0.602c0.2-0.181,0.438-0.329,0.713-0.444c0.275-0.117,0.575-0.174,0.898-0.174c0.328,0,0.562,0.045,0.702,0.137
		c0.14,0.092,0.21,0.207,0.21,0.346c0,0.131-0.054,0.271-0.163,0.423c-0.108,0.151-0.253,0.296-0.434,0.433
		c-0.182,0.138-0.393,0.258-0.634,0.36c-0.241,0.104-0.492,0.173-0.753,0.206c0.005,0.034,0.031,0.062,0.08,0.087
		c0.039,0.024,0.102,0.044,0.188,0.062c0.087,0.017,0.208,0.025,0.362,0.025c0.13,0,0.241-0.016,0.333-0.048
		c0.092-0.03,0.174-0.066,0.247-0.108c0.072-0.041,0.138-0.077,0.195-0.108s0.121-0.047,0.188-0.047c0.15,0,0.225,0.061,0.225,0.181
		c0,0.121-0.048,0.234-0.145,0.339c-0.094,0.102-0.215,0.189-0.364,0.266c0.312-0.035,0.623-0.062,0.932-0.08
		c0.022-0.212,0.049-0.432,0.083-0.662c-0.101-0.005-0.19-0.016-0.264-0.032c-0.075-0.018-0.127-0.05-0.156-0.098
		c-0.024-0.039-0.036-0.079-0.036-0.123c0-0.059,0.018-0.111,0.054-0.16s0.082-0.093,0.138-0.134
		c0.055-0.041,0.113-0.074,0.173-0.103c0.061-0.026,0.112-0.044,0.156-0.054c0.01,0,0.029-0.004,0.059-0.014
		c0.096-0.479,0.224-0.949,0.383-1.413s0.361-0.878,0.605-1.246c0.243-0.366,0.534-0.664,0.872-0.891
		c0.338-0.228,0.731-0.34,1.181-0.34c0.237,0,0.419,0.075,0.547,0.228c0.128,0.151,0.192,0.354,0.192,0.605
		c0,0.203-0.041,0.408-0.124,0.619c-0.083,0.21-0.192,0.415-0.329,0.619c-0.138,0.203-0.293,0.397-0.467,0.587
		c-0.174,0.188-0.351,0.36-0.532,0.518c-0.181,0.156-0.361,0.294-0.54,0.413c-0.179,0.118-0.338,0.209-0.479,0.271
		c0.005,0.009,0.012,0.019,0.022,0.028c0.024,0.024,0.056,0.037,0.095,0.037c0.082,0,0.188-0.007,0.318-0.019
		c0.13-0.013,0.258-0.019,0.384-0.019c0.058,0,0.109,0.013,0.152,0.037c0.043,0.024,0.079,0.054,0.105,0.09
		c0.026,0.037,0.047,0.076,0.062,0.12c0.015,0.043,0.022,0.082,0.022,0.116c0,0.066-0.015,0.13-0.043,0.188
		c-0.029,0.059-0.078,0.087-0.145,0.087c-0.092,0-0.17-0.001-0.235-0.003c-0.065-0.004-0.132-0.005-0.199-0.005
		s-0.144-0.001-0.228-0.003c-0.085-0.003-0.19-0.004-0.315-0.004c-0.078,0-0.15,0.001-0.218,0.004
		c-0.067,0.002-0.132,0.006-0.195,0.011c-0.038,0.248-0.071,0.486-0.101,0.718c1.137,0.01,2.219,0.151,3.144,0.457
		c0.223,0.055,1.213,0.415,1.223,0.539c0.043,0.501,0.105,0.762,0.193,1.247c-1.2-0.85-2.849-1.2-4.658-1.262
		c-0.017,0.239-0.026,0.443-0.026,0.611C218.788,85.176,218.795,85.234,218.813,85.278z M223.619,82.784
		c-0.068,0.186-0.174,0.351-0.318,0.498c-0.145,0.147-0.329,0.268-0.551,0.361c-0.222,0.095-0.49,0.141-0.804,0.141
		c-0.145,0-0.271-0.016-0.38-0.047c-0.108-0.031-0.198-0.071-0.268-0.119c-0.07-0.049-0.122-0.102-0.156-0.16
		c-0.034-0.058-0.05-0.113-0.05-0.166c0-0.059,0.018-0.124,0.054-0.199s0.081-0.147,0.134-0.217c0.053-0.07,0.114-0.129,0.182-0.174
		c0.067-0.047,0.133-0.069,0.195-0.069c0.049,0,0.088,0.019,0.12,0.055s0.067,0.075,0.108,0.116c0.041,0.04,0.094,0.079,0.16,0.115
		c0.064,0.036,0.156,0.055,0.271,0.055c0.217,0,0.378-0.057,0.481-0.17c0.104-0.114,0.156-0.24,0.156-0.382
		c0-0.134-0.048-0.258-0.145-0.368c-0.096-0.111-0.239-0.167-0.427-0.167c-0.024,0-0.077,0.018-0.156,0.054
		c-0.08,0.037-0.172,0.084-0.275,0.142c-0.104,0.059-0.212,0.118-0.326,0.182c-0.114,0.062-0.22,0.123-0.319,0.181
		c-0.099,0.059-0.183,0.105-0.25,0.141c-0.068,0.036-0.109,0.055-0.124,0.055c-0.043,0-0.082-0.013-0.116-0.039
		c-0.033-0.026-0.063-0.06-0.09-0.098c-0.027-0.039-0.046-0.077-0.058-0.116c-0.012-0.038-0.018-0.07-0.018-0.095
		c0-0.059,0.041-0.128,0.123-0.21s0.188-0.167,0.318-0.256c0.13-0.089,0.275-0.178,0.435-0.271c0.159-0.09,0.316-0.17,0.471-0.239
		c0.154-0.07,0.298-0.127,0.431-0.173c0.132-0.045,0.238-0.068,0.315-0.068c0.154,0,0.293,0.031,0.416,0.094
		s0.226,0.148,0.308,0.257s0.145,0.231,0.188,0.368c0.044,0.138,0.065,0.283,0.065,0.438
		C223.72,82.415,223.686,82.599,223.619,82.784z"/>
	<path fill="#FBFAF8" d="M219.86,81.069c0.188-0.207,0.347-0.421,0.478-0.641c0.13-0.221,0.229-0.437,0.297-0.648
		c0.067-0.213,0.102-0.405,0.102-0.579c0-0.083-0.021-0.151-0.062-0.207c-0.041-0.056-0.117-0.088-0.228-0.099
		c-0.126,0-0.247,0.075-0.362,0.226c-0.116,0.149-0.226,0.351-0.329,0.605c-0.104,0.253-0.202,0.544-0.293,0.873
		c-0.092,0.327-0.174,0.672-0.247,1.034C219.456,81.465,219.67,81.277,219.86,81.069z"/>
	<path fill="#5C2D08" d="M209.738,56.548c1.311,0.073,2.146,0.683,2.94,1.311c-0.826-0.951-1.82-1.734-3.383-1.948
		c-0.219,0-0.437,0-0.656,0c-1.981,0.269-3.035,1.464-4.073,2.675C205.857,57.668,207.388,56.418,209.738,56.548z"/>
	<path fill="#5C2D08" d="M216.468,57.345c0.553,0.337,0.929,0.737,1.151,1.293c0.034,0.066,0.025,0.088,0.074,0.165
		c0.006,0.002,0.012,0.003,0.018,0.005l0.103,0.326c0.098,0.466,0.133,1.054,0.053,1.559c0.212-0.401,0.326-1.28,0.266-1.895
		c-0.354-1.261-1.147-2.341-2.657-2.444c-1.229-0.083-2.143,0.417-2.922,0.886C213.746,56.959,215.489,56.748,216.468,57.345z"/>
	<path fill="#5C2D08" d="M205.575,63.916c-0.104-0.108-0.233-0.058-0.354-0.071c-0.94-0.098-1.926-0.449-2.427-1.01
		c-0.247-0.276-0.435-0.703-0.407-1.204c0.079-1.401,1.107-2.091,2.32-2.426c-0.077,0.012-0.13,0-0.106-0.088
		c-1.532,0.085-2.276,0.958-2.568,2.284c0,0.172,0,0.343,0,0.514C202.228,63.531,203.713,64.252,205.575,63.916z"/>
	<path fill="#5C2D08" d="M218.735,59.488c0.308,0.359,0.606,0.776,0.761,1.275c0.234,0.751,0.12,1.567-0.23,2.196
		c-0.624,1.123-1.77,1.958-3.4,1.984c2.565,0.47,4.03-1.053,4.286-3.224c0-0.142,0-0.283,0-0.425
		c-0.133-1.112-0.783-1.708-1.541-2.196c-0.056-0.036-0.126-0.089-0.234-0.14C218.277,59.129,218.654,59.394,218.735,59.488z"/>
	<path fill="#5C2D08" d="M212.854,62.747c-0.028,0.002-0.014,0.002-0.04,0.003c-0.03,0.003-0.014,0.002-0.071,0.006
		c-0.072,0.007-0.063,0.007-0.1,0.013c-0.04,0.014-0.102,0.019-0.161,0.03c-0.51,0.096-1.054,0.214-1.47,0.39
		c1.662-0.003,3.088,0.23,4.197,0.779c-0.565,1.093-1.073,2.245-1.045,3.932c-2.15-0.618-5.601-0.678-7.509,0.248
		c2.801-0.464,6.536-0.378,8.484,0.815c-0.4-1.954-0.035-4.218,0.832-5.401C215.218,63.016,214.141,62.702,212.854,62.747z"/>
	<path fill="#5C2D08" d="M206.142,63.916c-0.251,0.079-0.445,0.217-0.691,0.301c0.279,0.56,0.583,1.188,0.709,1.842
		c-0.006,0.032,0.046,0.03,0.035,0.018c0.046,0.046,0.105,0.542,0.142,0.762c0.08,0.469,0.12,0.87,0.106,1.381
		C206.656,66.738,206.373,65.185,206.142,63.916z"/>
	<path fill="#5C2D08" d="M210.212,70.068c0.085-0.021,0.166-0.046,0.239-0.08c-0.721-0.215-2.055-0.197-2.631,0.125
		c0.278-0.027,0.592-0.018,0.91-0.004C208.867,70.535,210.149,70.522,210.212,70.068z"/>
	<path fill="#60330F" d="M212.541,74.421c-0.428,0.004-0.813-0.005-1.473,0c-0.53,0.004-1.871-0.036-1.021,0.113
		C210.659,74.642,212.276,74.782,212.541,74.421z"/>
	<path fill="#5C2D08" d="M211.785,70.099c0.003-0.012,0.005-0.024,0.007-0.034c-0.59,0.677-1.21,3.35,0,3.502
		c-0.744-0.803-0.146-2.778-0.009-3.457c0.25-0.023,0.526-0.017,0.809-0.006c-0.006,0.003-0.012,0.006-0.017,0.009
		c0.001,0.514,1.495,0.514,1.496,0c-0.013-0.008-0.028-0.016-0.043-0.023c0.132-0.022,0.254-0.055,0.36-0.104
		C213.677,69.775,212.375,69.791,211.785,70.099z"/>
	<path fill="#5C2D08" d="M217.915,83.534c-0.31,0.019-0.621,0.045-0.932,0.08c-0.005,0.003-0.01,0.005-0.016,0.008
		c-0.157,0.079-0.335,0.139-0.532,0.184c-0.198,0.044-0.396,0.065-0.594,0.065c-0.129,0-0.249-0.008-0.359-0.023
		c-1.565,0.314-3.04,0.829-4.157,1.474c2.016-0.406,4.348-0.797,6.528-0.838c0.005-0.163,0.014-0.337,0.026-0.525
		C217.887,83.822,217.9,83.68,217.915,83.534z"/>
	<path fill="#5C2D08" d="M218.813,84.491c1.809,0.062,3.458,0.412,4.658,1.262c-0.088-0.485-0.149-0.746-0.193-1.247
		c-0.01-0.124-1-0.484-1.223-0.538c-0.925-0.305-2.007-0.448-3.144-0.458c-0.025,0.207-0.048,0.407-0.066,0.6
		C218.833,84.246,218.822,84.373,218.813,84.491z"/>
	<path fill="#42852A" d="M199.891,80.569c0.038,0.015,0.082,0.021,0.13,0.021c0.179-0.01,0.322-0.051,0.431-0.126
		c0.108-0.075,0.192-0.158,0.25-0.25c0.058-0.093,0.096-0.184,0.116-0.275c0.019-0.091,0.029-0.159,0.029-0.202
		c0-0.049-0.018-0.087-0.051-0.117c-0.034-0.028-0.074-0.051-0.12-0.064c-0.045-0.015-0.095-0.024-0.148-0.029
		s-0.099-0.007-0.138-0.007c-0.082,0-0.157,0.013-0.225,0.039c-0.068,0.027-0.121,0.074-0.159,0.142
		c-0.029,0.054-0.057,0.115-0.084,0.185c-0.026,0.07-0.052,0.141-0.076,0.21c-0.024,0.07-0.045,0.135-0.062,0.192
		s-0.027,0.104-0.033,0.138c0,0.039,0.014,0.07,0.043,0.094C199.826,80.542,199.857,80.559,199.891,80.569z"/>
	<path fill="#42852A" d="M201.191,82.876c-0.046-0.022-0.093-0.033-0.142-0.033c-0.053,0-0.092,0.009-0.12,0.025
		c-0.026,0.017-0.051,0.034-0.076,0.051c-0.024,0.018-0.054,0.034-0.09,0.051c-0.036,0.018-0.091,0.025-0.163,0.025
		c-0.149,0-0.258-0.051-0.322-0.152c-0.065-0.101-0.098-0.219-0.098-0.354c0-0.072,0.016-0.164,0.047-0.274
		c0.031-0.111,0.067-0.221,0.105-0.326c0.038-0.106,0.073-0.204,0.105-0.291c0.031-0.086,0.047-0.144,0.047-0.173
		c0-0.034-0.012-0.063-0.036-0.091c-0.024-0.026-0.063-0.04-0.116-0.04c-0.034,0-0.085,0.007-0.152,0.019
		c-0.068,0.013-0.141,0.028-0.217,0.051c-0.078,0.021-0.15,0.044-0.218,0.068c-0.067,0.024-0.12,0.046-0.159,0.065
		c-0.01,0.005-0.033,0.054-0.069,0.145c-0.036,0.092-0.073,0.21-0.112,0.352c-0.039,0.142-0.074,0.302-0.105,0.478
		c-0.032,0.177-0.053,0.354-0.062,0.533c-0.005,0.149,0.014,0.277,0.058,0.384c0.043,0.105,0.105,0.191,0.185,0.257
		c0.08,0.064,0.17,0.112,0.271,0.141c0.101,0.029,0.208,0.044,0.319,0.044c0.14,0,0.282-0.021,0.427-0.064
		c0.145-0.045,0.275-0.104,0.391-0.179s0.211-0.16,0.286-0.26c0.075-0.099,0.112-0.205,0.112-0.316
		C201.27,82.943,201.236,82.898,201.191,82.876z"/>
	<path fill="#42852A" d="M209.792,82.868c-0.067-0.046-0.14-0.084-0.217-0.112s-0.147-0.043-0.21-0.043
		c-0.097,0-0.201,0.025-0.312,0.076c-0.111,0.05-0.233,0.104-0.366,0.162s-0.282,0.112-0.445,0.163
		c-0.165,0.051-0.35,0.076-0.558,0.076c-0.212,0-0.394-0.026-0.543-0.08c-0.15-0.053-0.272-0.127-0.366-0.221
		c-0.094-0.094-0.163-0.207-0.206-0.337c-0.043-0.131-0.065-0.272-0.065-0.427c0-0.232,0.044-0.483,0.134-0.754
		s0.211-0.541,0.366-0.811c0.154-0.271,0.336-0.533,0.546-0.786c0.21-0.253,0.436-0.477,0.677-0.67
		c0.242-0.193,0.492-0.349,0.75-0.464c0.258-0.116,0.516-0.174,0.772-0.174c0.077,0,0.152,0.007,0.224,0.019
		c0.073,0.012,0.135,0.032,0.189,0.062c0.053,0.028,0.096,0.068,0.13,0.119s0.05,0.117,0.05,0.199c0,0.178-0.061,0.349-0.184,0.511
		s-0.274,0.304-0.453,0.427c-0.179,0.124-0.367,0.222-0.565,0.294s-0.372,0.108-0.521,0.108c-0.058,0-0.103-0.007-0.134-0.022
		c-0.031-0.014-0.061-0.021-0.09-0.021c-0.043,0-0.066,0.026-0.066,0.079c0,0.093,0.028,0.17,0.083,0.232
		c0.056,0.062,0.12,0.114,0.192,0.155c0.072,0.041,0.147,0.07,0.224,0.087s0.138,0.025,0.181,0.025
		c0.323-0.005,0.641-0.073,0.953-0.206c0.311-0.133,0.588-0.3,0.829-0.5c0.242-0.2,0.437-0.418,0.587-0.651
		c0.15-0.234,0.225-0.455,0.225-0.663c0-0.261-0.113-0.46-0.34-0.598c-0.228-0.138-0.609-0.206-1.145-0.206
		c-0.454,0-0.889,0.063-1.304,0.192c-0.416,0.128-0.8,0.301-1.156,0.518c-0.354,0.217-0.676,0.469-0.963,0.753
		c-0.287,0.285-0.532,0.587-0.735,0.905s-0.36,0.643-0.471,0.971c-0.111,0.329-0.166,0.643-0.166,0.941
		c0,0.165,0.019,0.321,0.054,0.472c-0.019,0.007-0.039,0.015-0.061,0.024c-0.073,0.031-0.153,0.064-0.24,0.102
		c-0.086,0.036-0.175,0.07-0.264,0.101c-0.089,0.032-0.172,0.048-0.25,0.048c-0.087,0-0.14-0.028-0.159-0.087
		c-0.02-0.058-0.029-0.105-0.029-0.145c0-0.059,0.007-0.112,0.022-0.163c0.014-0.05,0.028-0.101,0.043-0.152
		c0.014-0.051,0.028-0.103,0.042-0.155c0.015-0.053,0.022-0.113,0.022-0.181c0-0.073-0.014-0.131-0.043-0.174
		c-0.029-0.044-0.067-0.079-0.112-0.106c-0.046-0.026-0.099-0.044-0.159-0.054c-0.061-0.01-0.122-0.014-0.185-0.014
		c-0.136,0-0.283,0.035-0.442,0.104c-0.159,0.07-0.311,0.146-0.456,0.228c-0.145,0.083-0.271,0.159-0.38,0.229
		c-0.109,0.069-0.178,0.105-0.207,0.105c-0.039,0-0.058-0.022-0.058-0.065c0-0.028,0.009-0.065,0.025-0.112
		c0.017-0.046,0.035-0.097,0.055-0.151c0.019-0.057,0.036-0.116,0.05-0.179s0.022-0.122,0.022-0.181
		c0-0.053-0.009-0.103-0.025-0.148c-0.017-0.047-0.047-0.088-0.091-0.124c-0.043-0.036-0.102-0.064-0.177-0.087
		c-0.075-0.021-0.167-0.031-0.279-0.031c-0.26,0-0.461,0.03-0.601,0.094c-0.14,0.062-0.244,0.135-0.312,0.218
		c-0.077,0.092-0.121,0.194-0.13,0.312c0,0.067,0.016,0.129,0.047,0.184c0.031,0.056,0.081,0.084,0.148,0.084
		c0.058,0,0.126-0.021,0.207-0.059c0.079-0.039,0.16-0.058,0.242-0.058c0.106,0,0.183,0.026,0.228,0.079
		c0.046,0.053,0.069,0.118,0.069,0.196c0,0.077-0.017,0.169-0.05,0.278c-0.034,0.108-0.072,0.216-0.112,0.322
		c-0.041,0.106-0.079,0.206-0.112,0.301c-0.034,0.094-0.051,0.17-0.051,0.229c0,0.086,0.039,0.149,0.116,0.188
		c0.078,0.039,0.152,0.059,0.225,0.059c0.067,0,0.125-0.013,0.174-0.036c0.048-0.024,0.084-0.047,0.108-0.065
		c0.024-0.024,0.09-0.083,0.196-0.178c0.106-0.094,0.222-0.195,0.348-0.305c0.125-0.108,0.245-0.204,0.358-0.289
		s0.189-0.127,0.228-0.127c0.067,0,0.11,0.016,0.126,0.046c0.017,0.032,0.025,0.074,0.025,0.128c0,0.136,0.004,0.253,0.011,0.354
		c0.007,0.102,0.026,0.187,0.058,0.253c0.031,0.068,0.079,0.119,0.142,0.152c0.062,0.034,0.149,0.052,0.261,0.052
		c0.169,0,0.349-0.03,0.539-0.087c0.19-0.059,0.367-0.132,0.529-0.222c0.161-0.089,0.295-0.186,0.402-0.289
		c0.019-0.02,0.036-0.038,0.052-0.057c0.085,0.17,0.202,0.321,0.35,0.455c0.186,0.166,0.422,0.296,0.71,0.391
		c0.287,0.094,0.631,0.142,1.032,0.142c0.299,0,0.594-0.031,0.883-0.095c0.29-0.062,0.549-0.139,0.779-0.229
		c0.229-0.089,0.414-0.182,0.554-0.278s0.21-0.176,0.21-0.239c0-0.058-0.023-0.116-0.069-0.177
		C209.916,82.967,209.859,82.915,209.792,82.868z"/>
	<path fill="#42852A" d="M216.434,83.806c0.197-0.043,0.375-0.104,0.532-0.184c0.006-0.003,0.011-0.005,0.017-0.008
		c0.149-0.076,0.271-0.164,0.364-0.267c0.096-0.104,0.145-0.217,0.145-0.339c0-0.12-0.075-0.181-0.225-0.181
		c-0.067,0-0.13,0.016-0.188,0.048c-0.059,0.031-0.124,0.067-0.196,0.108c-0.072,0.041-0.154,0.077-0.246,0.108
		c-0.092,0.032-0.203,0.047-0.333,0.047c-0.155,0-0.275-0.008-0.362-0.024c-0.087-0.017-0.15-0.038-0.188-0.062
		c-0.049-0.024-0.075-0.053-0.08-0.087c0.261-0.034,0.512-0.103,0.753-0.205c0.242-0.104,0.453-0.224,0.634-0.361
		c0.181-0.137,0.326-0.281,0.435-0.433s0.163-0.292,0.163-0.423c0-0.139-0.07-0.255-0.209-0.346
		c-0.141-0.092-0.374-0.138-0.703-0.138c-0.323,0-0.623,0.058-0.897,0.174c-0.275,0.116-0.514,0.265-0.714,0.445
		c-0.2,0.182-0.357,0.382-0.471,0.601c-0.113,0.221-0.17,0.432-0.17,0.635c0,0.006,0,0.014,0,0.021h0
		c-0.024,0-0.049,0.003-0.072,0.007c-0.024,0.006-0.048,0.013-0.072,0.021c-0.029,0.01-0.07,0.018-0.124,0.026
		c-0.053,0.007-0.109,0.013-0.17,0.017c-0.061,0.006-0.119,0.009-0.174,0.012c-0.056,0.002-0.1,0.004-0.134,0.004
		c-0.049,0-0.097-0.011-0.145-0.032c-0.048-0.022-0.073-0.089-0.073-0.199c0-0.059,0.008-0.13,0.026-0.217
		c0.017-0.088,0.036-0.174,0.058-0.262c0.021-0.086,0.041-0.169,0.058-0.246c0.017-0.077,0.025-0.132,0.025-0.166
		c0-0.121-0.042-0.203-0.126-0.247c-0.084-0.043-0.183-0.065-0.293-0.065c-0.13,0-0.277,0.03-0.438,0.091
		c-0.162,0.061-0.323,0.132-0.482,0.214c-0.16,0.083-0.308,0.17-0.446,0.261c-0.138,0.092-0.248,0.172-0.329,0.239
		c-0.02,0.01-0.032,0.015-0.037,0.015c-0.02,0-0.029-0.02-0.029-0.058c0-0.039,0.006-0.11,0.018-0.214
		c0.012-0.104,0.03-0.229,0.054-0.373c0.314-0.14,0.632-0.32,0.956-0.539c0.323-0.221,0.618-0.464,0.883-0.732
		c0.266-0.268,0.482-0.551,0.652-0.848c0.169-0.296,0.254-0.59,0.254-0.88c0-0.192-0.083-0.349-0.247-0.467
		s-0.372-0.177-0.623-0.177c-0.377,0-0.711,0.093-1.004,0.278s-0.546,0.432-0.764,0.738c-0.217,0.307-0.4,0.656-0.55,1.05
		c-0.149,0.394-0.268,0.797-0.355,1.206c-0.154,0.038-0.312,0.07-0.475,0.095s-0.327,0.036-0.496,0.036
		c-0.039,0-0.07,0.02-0.094,0.062c-0.024,0.041-0.036,0.085-0.036,0.133c0,0.073,0.044,0.131,0.134,0.172
		c0.089,0.04,0.187,0.073,0.293,0.098c0.125,0.024,0.266,0.038,0.42,0.043c0.023,0,0.045,0,0.065,0c0.019,0,0.041-0.003,0.065-0.007
		c-0.039,0.261-0.067,0.515-0.083,0.761c-0.017,0.245-0.025,0.476-0.025,0.687c0,0.117,0.039,0.215,0.116,0.294
		c0.077,0.08,0.21,0.119,0.398,0.119c0.087,0,0.155-0.014,0.206-0.039c0.051-0.026,0.093-0.058,0.127-0.095
		c0.033-0.036,0.059-0.073,0.076-0.111c0.017-0.039,0.032-0.07,0.047-0.095c0.024-0.043,0.076-0.114,0.156-0.211
		c0.08-0.096,0.174-0.194,0.283-0.296c0.108-0.102,0.225-0.189,0.348-0.264c0.123-0.075,0.238-0.112,0.344-0.112
		c0.053,0,0.08,0.019,0.08,0.057c0,0.03-0.008,0.066-0.025,0.109s-0.037,0.094-0.059,0.151c-0.021,0.059-0.042,0.123-0.061,0.192
		c-0.019,0.07-0.029,0.144-0.029,0.221c0,0.174,0.065,0.302,0.195,0.385c0.13,0.081,0.28,0.123,0.449,0.123
		c0.111,0,0.25-0.021,0.42-0.062c0.169-0.042,0.332-0.098,0.489-0.168c0.157-0.069,0.292-0.149,0.405-0.238
		c0.033-0.025,0.059-0.05,0.082-0.075c0.05,0.086,0.116,0.163,0.202,0.231c0.108,0.087,0.249,0.155,0.42,0.206
		c0.077,0.022,0.163,0.041,0.253,0.052c0.11,0.017,0.229,0.023,0.359,0.023C216.038,83.871,216.235,83.85,216.434,83.806z
		 M211.943,80.229c0.078-0.256,0.166-0.486,0.265-0.691c0.099-0.206,0.208-0.373,0.326-0.505c0.118-0.13,0.245-0.194,0.38-0.194
		c0.091,0,0.17,0.017,0.235,0.051c0.065,0.032,0.098,0.099,0.098,0.194c0,0.127-0.036,0.27-0.105,0.432
		c-0.07,0.162-0.17,0.328-0.301,0.5s-0.289,0.34-0.475,0.506c-0.186,0.168-0.395,0.32-0.626,0.461
		C211.798,80.736,211.866,80.486,211.943,80.229z M215.641,82.087c0.065-0.085,0.144-0.162,0.236-0.232
		c0.091-0.07,0.188-0.127,0.29-0.171c0.101-0.043,0.188-0.065,0.261-0.065c0.052,0,0.1,0.008,0.141,0.022
		c0.041,0.015,0.062,0.043,0.062,0.087c0,0.062-0.037,0.136-0.108,0.217c-0.073,0.083-0.161,0.158-0.265,0.225
		c-0.104,0.068-0.215,0.126-0.333,0.174c-0.118,0.049-0.221,0.072-0.308,0.072c-0.048,0-0.073-0.023-0.073-0.072
		C215.542,82.256,215.575,82.17,215.641,82.087z"/>
	<path fill="#42852A" d="M218.845,84.11c0.018-0.192,0.041-0.393,0.066-0.6c0.028-0.23,0.062-0.47,0.101-0.718
		c0.062-0.004,0.127-0.009,0.195-0.011s0.14-0.004,0.217-0.004c0.125,0,0.23,0.002,0.315,0.004s0.161,0.005,0.229,0.005
		c0.067,0,0.134,0.001,0.199,0.003c0.065,0.003,0.143,0.004,0.235,0.004c0.067,0,0.116-0.029,0.146-0.087
		c0.028-0.059,0.043-0.121,0.043-0.188c0-0.034-0.008-0.073-0.022-0.116c-0.014-0.044-0.035-0.083-0.062-0.119
		c-0.026-0.037-0.061-0.066-0.105-0.091s-0.094-0.036-0.152-0.036c-0.126,0-0.253,0.007-0.384,0.019
		c-0.13,0.011-0.237,0.018-0.318,0.018c-0.039,0-0.071-0.012-0.094-0.036c-0.01-0.011-0.017-0.02-0.022-0.029
		c0.14-0.062,0.299-0.152,0.479-0.271c0.178-0.117,0.358-0.256,0.539-0.413c0.181-0.157,0.359-0.329,0.532-0.518
		c0.174-0.188,0.33-0.384,0.467-0.587s0.247-0.409,0.329-0.619c0.083-0.21,0.124-0.416,0.124-0.619c0-0.251-0.064-0.453-0.191-0.605
		c-0.128-0.151-0.311-0.228-0.547-0.228c-0.45,0-0.843,0.113-1.181,0.34c-0.338,0.228-0.628,0.524-0.872,0.892
		s-0.446,0.782-0.605,1.245c-0.16,0.464-0.288,0.936-0.384,1.413c-0.029,0.01-0.048,0.015-0.058,0.015
		c-0.043,0.01-0.095,0.028-0.156,0.055s-0.119,0.06-0.174,0.102c-0.055,0.04-0.101,0.086-0.138,0.133
		c-0.036,0.049-0.054,0.103-0.054,0.16c0,0.044,0.012,0.085,0.036,0.123c0.029,0.049,0.081,0.082,0.155,0.098
		c0.075,0.017,0.164,0.028,0.265,0.032c-0.035,0.23-0.062,0.45-0.083,0.663c-0.015,0.145-0.027,0.287-0.036,0.424
		c-0.012,0.188-0.021,0.362-0.026,0.525c-0.004,0.13-0.007,0.253-0.007,0.366c0,0.102,0.004,0.209,0.011,0.326
		c0.007,0.115,0.023,0.224,0.047,0.321c0.024,0.099,0.057,0.182,0.097,0.247c0.042,0.064,0.096,0.098,0.163,0.098
		c0.053,0,0.118-0.007,0.196-0.018c0.077-0.014,0.154-0.03,0.232-0.052c0.077-0.021,0.147-0.048,0.209-0.079
		s0.104-0.064,0.124-0.099c0.014-0.028,0.022-0.053,0.022-0.072c0-0.024-0.009-0.045-0.026-0.064s-0.035-0.043-0.054-0.073
		c-0.019-0.028-0.038-0.064-0.054-0.107c-0.017-0.044-0.025-0.102-0.025-0.174c0-0.169,0.008-0.373,0.026-0.611
		C218.822,84.373,218.833,84.246,218.845,84.11z M219.461,80.599c0.092-0.329,0.189-0.62,0.293-0.873s0.214-0.456,0.33-0.605
		c0.116-0.15,0.237-0.225,0.362-0.225c0.111,0.01,0.188,0.042,0.229,0.098c0.041,0.056,0.062,0.124,0.062,0.207
		c0,0.174-0.034,0.366-0.102,0.579c-0.068,0.212-0.166,0.428-0.296,0.648s-0.29,0.434-0.479,0.641
		c-0.188,0.208-0.403,0.396-0.645,0.564C219.287,81.271,219.37,80.926,219.461,80.599z"/>
	<path fill="#42852A" d="M223.466,81.426c-0.083-0.108-0.185-0.193-0.308-0.257c-0.124-0.062-0.262-0.093-0.416-0.093
		c-0.078,0-0.183,0.022-0.315,0.067c-0.133,0.046-0.277,0.103-0.431,0.173c-0.155,0.069-0.312,0.149-0.471,0.239
		c-0.16,0.093-0.304,0.182-0.435,0.271c-0.13,0.089-0.236,0.174-0.318,0.256c-0.083,0.082-0.123,0.151-0.123,0.21
		c0,0.024,0.006,0.057,0.018,0.095c0.012,0.039,0.031,0.077,0.058,0.116c0.026,0.038,0.057,0.071,0.09,0.098
		c0.034,0.026,0.073,0.039,0.116,0.039c0.015,0,0.056-0.019,0.124-0.055c0.067-0.035,0.151-0.082,0.25-0.141
		c0.099-0.058,0.205-0.118,0.318-0.181c0.114-0.062,0.222-0.123,0.327-0.182c0.104-0.058,0.195-0.104,0.275-0.142
		c0.08-0.036,0.131-0.054,0.156-0.054c0.188,0,0.33,0.056,0.427,0.167c0.096,0.111,0.145,0.234,0.145,0.368
		c0,0.142-0.052,0.268-0.156,0.382c-0.104,0.113-0.264,0.17-0.481,0.17c-0.116,0-0.207-0.019-0.272-0.055s-0.118-0.075-0.16-0.115
		c-0.041-0.041-0.077-0.08-0.108-0.116s-0.072-0.055-0.119-0.055c-0.062,0-0.128,0.022-0.196,0.069
		c-0.068,0.045-0.128,0.104-0.181,0.174c-0.053,0.069-0.098,0.142-0.134,0.217c-0.036,0.075-0.054,0.141-0.054,0.199
		c0,0.053,0.017,0.108,0.051,0.166c0.034,0.059,0.085,0.111,0.156,0.16c0.07,0.048,0.16,0.088,0.268,0.119
		c0.109,0.031,0.235,0.047,0.38,0.047c0.314,0,0.582-0.047,0.804-0.141s0.405-0.214,0.55-0.361s0.251-0.312,0.319-0.498
		c0.067-0.185,0.101-0.369,0.101-0.553c0-0.154-0.021-0.3-0.065-0.438C223.611,81.657,223.548,81.534,223.466,81.426z"/>
</g>
</svg>
