<?xml version="1.0" encoding="UTF-8" standalone="no"?>
<svg width="60px" height="60px" viewBox="0 0 60 60" version="1.1" xmlns="http://www.w3.org/2000/svg" xmlns:xlink="http://www.w3.org/1999/xlink" xmlns:sketch="http://www.bohemiancoding.com/sketch/ns">
    <!-- Generator: Sketch 3.2.2 (9983) - http://www.bohemiancoding.com/sketch -->
    <title>Carrycart</title>
    <desc>Created with Sketch.</desc>
    <defs></defs>
    <g id="stroked" stroke="none" stroke-width="1" fill="none" fill-rule="evenodd" sketch:type="MSPage">
        <g id="Marketing" sketch:type="MSLayerGroup" transform="translate(-838.000000, -590.000000)" stroke="#535353" stroke-width="2" stroke-linecap="round" stroke-linejoin="round">
            <g id="Carrycart" transform="translate(845.000000, 595.000000)" sketch:type="MSShapeGroup">
                <path d="M36.7509469,38.9320551 L43,3 L50.3508726,0.459026178 M0,49 L25.581517,49 C25.2065071,48.0735686 25,47.0609004 25,46 C25,41.581722 28.581722,38 33,38 C34.3554728,38 35.6322102,38.3371067 36.7509469,38.9320551" id="Rectangle-1507"></path>
                <circle id="Oval-1389" cx="33" cy="46" r="5"></circle>
                <rect id="Rectangle-1507" x="2" y="36" width="19" height="11"></rect>
                <rect id="Rectangle-1507" x="2" y="27" width="19" height="11"></rect>
                <rect id="Rectangle-1507" x="2" y="18" width="19" height="11"></rect>
            </g>
        </g>
    </g>
</svg>