<?xml version="1.0" encoding="UTF-8" standalone="no"?>
<svg width="60px" height="60px" viewBox="0 0 60 60" version="1.1" xmlns="http://www.w3.org/2000/svg" xmlns:xlink="http://www.w3.org/1999/xlink" xmlns:sketch="http://www.bohemiancoding.com/sketch/ns">
    <!-- Generator: Sketch 3.2.2 (9983) - http://www.bohemiancoding.com/sketch -->
    <title>Desk</title>
    <desc>Created with Sketch.</desc>
    <defs></defs>
    <g id="stroked" stroke="none" stroke-width="1" fill="none" fill-rule="evenodd" sketch:type="MSPage">
        <g id="Marketing" sketch:type="MSLayerGroup" transform="translate(-838.000000, -1190.000000)" stroke="#535353" stroke-width="2" stroke-linejoin="round">
            <g id="Desk" transform="translate(722.000000, 1185.000000)" sketch:type="MSShapeGroup">
                <rect id="Rectangle-1624" stroke-linecap="round" x="120" y="38" width="52" height="22"></rect>
                <path d="M122,31 L170,31 L172,38 L120,38 L122,31 Z" id="Rectangle-1624" stroke-linecap="round"></path>
                <path d="M125,60 L125,63.1622777" id="Line" stroke-linecap="square"></path>
                <path d="M167,60 L167,63.1622777" id="Line-337" stroke-linecap="square"></path>
                <rect id="Rectangle-1626" stroke-linecap="round" x="146" y="20" width="18" height="12"></rect>
                <rect id="Rectangle-1627" stroke-linecap="round" x="122" y="8" width="15" height="18"></rect>
                <path d="M128,12 L126,14" id="Line" stroke-linecap="round"></path>
                <path d="M132,12 L126,18" id="Line" stroke-linecap="round"></path>
            </g>
        </g>
    </g>
</svg>