<?xml version="1.0" encoding="UTF-8" standalone="no"?>
<svg width="60px" height="60px" viewBox="0 0 60 60" version="1.1" xmlns="http://www.w3.org/2000/svg" xmlns:xlink="http://www.w3.org/1999/xlink" xmlns:sketch="http://www.bohemiancoding.com/sketch/ns">
    <!-- Generator: Sketch 3.2.2 (9983) - http://www.bohemiancoding.com/sketch -->
    <title>Doublesafebox</title>
    <desc>Created with Sketch.</desc>
    <defs></defs>
    <g id="stroked" stroke="none" stroke-width="1" fill="none" fill-rule="evenodd" sketch:type="MSPage">
        <g id="Marketing" sketch:type="MSLayerGroup" transform="translate(-598.000000, -710.000000)" stroke="#535353" stroke-width="2" stroke-linejoin="round">
            <g id="Doublesafebox" transform="translate(600.000000, 714.000000)" sketch:type="MSShapeGroup">
                <rect id="Rectangle-1530" stroke-linecap="round" x="0" y="24" width="56" height="24"></rect>
                <rect id="Rectangle-1530" stroke-linecap="round" x="0" y="0" width="56" height="24"></rect>
                <circle id="Oval-1391" stroke-linecap="round" cx="28" cy="36" r="7"></circle>
                <circle id="Oval-1391" stroke-linecap="round" cx="28" cy="12" r="7"></circle>
                <path d="M35,32.6470476 L38,31" id="Line" stroke-linecap="square"></path>
                <path d="M17.7595699,15.0215589 L21,13.9204782" id="Line" stroke-linecap="square"></path>
                <rect id="Rectangle-1531" stroke-linecap="round" x="0" y="47" width="56" height="6"></rect>
            </g>
        </g>
    </g>
</svg>