<?xml version="1.0" encoding="UTF-8" standalone="no"?>
<svg width="60px" height="60px" viewBox="0 0 60 60" version="1.1" xmlns="http://www.w3.org/2000/svg" xmlns:xlink="http://www.w3.org/1999/xlink" xmlns:sketch="http://www.bohemiancoding.com/sketch/ns">
    <!-- Generator: Sketch 3.2.2 (9983) - http://www.bohemiancoding.com/sketch -->
    <title>Growing</title>
    <desc>Created with Sketch.</desc>
    <defs></defs>
    <g id="stroked" stroke="none" stroke-width="1" fill="none" fill-rule="evenodd" sketch:type="MSPage">
        <g id="Marketing" sketch:type="MSLayerGroup" transform="translate(-598.000000, -470.000000)" stroke="#535353" stroke-width="2" stroke-linejoin="round">
            <g id="Growing" transform="translate(601.000000, 475.000000)" sketch:type="MSShapeGroup">
                <rect id="Rectangle-1495" stroke-linecap="round" x="7" y="20" width="9" height="28"></rect>
                <rect id="Rectangle-1495" stroke-linecap="round" x="32" y="20" width="9" height="28"></rect>
                <rect id="Rectangle-1495" stroke-linecap="round" x="14" y="0" width="9" height="48"></rect>
                <rect id="Rectangle-1495" stroke-linecap="round" x="39" y="0" width="9" height="48"></rect>
                <path d="M0,47 L54.0092583,47" id="Line" stroke-linecap="square"></path>
                <path d="M0,51 L54.0092583,51" id="Line" stroke-linecap="square"></path>
            </g>
        </g>
    </g>
</svg>