<?xml version="1.0" encoding="UTF-8" standalone="no"?>
<svg width="60px" height="60px" viewBox="0 0 60 60" version="1.1" xmlns="http://www.w3.org/2000/svg" xmlns:xlink="http://www.w3.org/1999/xlink" xmlns:sketch="http://www.bohemiancoding.com/sketch/ns">
    <!-- Generator: Sketch 3.2.2 (9983) - http://www.bohemiancoding.com/sketch -->
    <title>Statsdecrease</title>
    <desc>Created with Sketch.</desc>
    <defs></defs>
    <g id="stroked" stroke="none" stroke-width="1" fill="none" fill-rule="evenodd" sketch:type="MSPage">
        <g id="Marketing" sketch:type="MSLayerGroup" transform="translate(-838.000000, -470.000000)" stroke="#535353" stroke-width="2" stroke-linejoin="round">
            <g id="Statsdecrease" transform="translate(845.000000, 470.000000)" sketch:type="MSShapeGroup">
                <path d="M0,42 L47,23 L47,57 L0,57 L0,42 Z" id="Rectangle-1499" stroke-linecap="round" transform="translate(23.500000, 40.000000) scale(-1, 1) translate(-23.500000, -40.000000) "></path>
                <path d="M37,56 L37,47" id="Line" stroke-linecap="square"></path>
                <path d="M28,56 L28,44" id="Line" stroke-linecap="square"></path>
                <g id="Rectangle-1500-+-Path-3390" transform="translate(28.459763, 21.089185) rotate(46.000000) translate(-28.459763, -21.089185) translate(8.959763, 11.089185)" stroke-linecap="round">
                    <path d="M29.9423689,1.33788865 L36.9423689,1.33788865 L36.9423689,8.33788865" id="Rectangle-1500" transform="translate(33.442369, 4.837889) rotate(24.000000) translate(-33.442369, -4.837889) "></path>
                    <path d="M37.4676571,3.34723552 L0.820152167,19.419215" id="Path-3390"></path>
                </g>
            </g>
        </g>
    </g>
</svg>