<?xml version="1.0" encoding="UTF-8" standalone="no"?>
<svg width="60px" height="60px" viewBox="0 0 60 60" version="1.1" xmlns="http://www.w3.org/2000/svg" xmlns:xlink="http://www.w3.org/1999/xlink" xmlns:sketch="http://www.bohemiancoding.com/sketch/ns">
    <!-- Generator: Sketch 3.2.2 (9983) - http://www.bohemiancoding.com/sketch -->
    <title>Cartdivide</title>
    <desc>Created with Sketch.</desc>
    <defs></defs>
    <g id="colored" stroke="none" stroke-width="1" fill="none" fill-rule="evenodd" sketch:type="MSPage">
        <g id="Marketing_sliced" sketch:type="MSLayerGroup" transform="translate(-720.000000, 0.000000)"></g>
        <g id="Marketing" sketch:type="MSLayerGroup" transform="translate(-718.000000, 10.000000)" stroke="#314E55" stroke-width="2" stroke-linecap="round" stroke-linejoin="round">
            <g id="Cartdivide" transform="translate(725.000000, 0.000000)" sketch:type="MSShapeGroup">
                <ellipse id="Oval-1329" fill="#F28544" cx="9" cy="42" rx="3" ry="3"></ellipse>
                <ellipse id="Oval-1329" fill="#F28544" cx="34" cy="42" rx="3" ry="3"></ellipse>
                <path d="M33.507991,11 L43,11 L41,33 L2,29 L0,11 L10.75345,11" id="Rectangle-1449" fill="#D8D8D8"></path>
                <path d="M41,32.4939416 L41,36.0643462 L3.2736947,36.0643462" id="Path-3188"></path>
                <path d="M42.9263446,12.9471388 L43.594948,7 L50.6128767,7" id="Path-3189" fill="#D8D8D8"></path>
                <ellipse id="Oval-1337" fill="#81A4E3" cx="22" cy="11" rx="11" ry="11"></ellipse>
                <path d="M16,11 L28,11" id="Line-313" fill="#D8D8D8"></path>
                <path d="M21,6 L23,6" id="Line-313" fill="#D8D8D8"></path>
                <path d="M21,16 L23,16" id="Line-314" fill="#D8D8D8"></path>
            </g>
        </g>
    </g>
</svg>