<?xml version="1.0" encoding="UTF-8" standalone="no"?>
<svg width="60px" height="60px" viewBox="0 0 60 60" version="1.1" xmlns="http://www.w3.org/2000/svg" xmlns:xlink="http://www.w3.org/1999/xlink" xmlns:sketch="http://www.bohemiancoding.com/sketch/ns">
    <!-- Generator: Sketch 3.2.2 (9983) - http://www.bohemiancoding.com/sketch -->
    <title>Citybuilding</title>
    <desc>Created with Sketch.</desc>
    <defs></defs>
    <g id="colored" stroke="none" stroke-width="1" fill="none" fill-rule="evenodd" sketch:type="MSPage">
        <g id="Marketing_sliced" sketch:type="MSLayerGroup" transform="translate(-240.000000, -960.000000)"></g>
        <g id="Marketing" sketch:type="MSLayerGroup" transform="translate(-238.000000, -950.000000)" stroke="#314E55" stroke-width="2" stroke-linejoin="round">
            <g id="Bankbuilding" transform="translate(246.000000, 953.000000)" sketch:type="MSShapeGroup">
                <rect id="Rectangle-1560" stroke-linecap="round" fill="#D8D8D8" x="3" y="21" width="14" height="30"></rect>
                <path d="M12,22 L12,50.0713367" id="Line" stroke-linecap="square" fill="#D8D8D8"></path>
                <path d="M8,22 L8,50.0713367" id="Line" stroke-linecap="square" fill="#D8D8D8"></path>
                <rect id="Rectangle-1561" stroke-linecap="round" fill="#D8D8D8" x="27" y="21" width="14" height="30"></rect>
                <path d="M36,22 L36,50.0713367" id="Line-331" stroke-linecap="square" fill="#D8D8D8"></path>
                <path d="M32,22 L32,50.0713367" id="Line-332" stroke-linecap="square" fill="#D8D8D8"></path>
                <rect id="Rectangle-1562" stroke-linecap="round" fill="#D8D8D8" x="1" y="49" width="18" height="6"></rect>
                <rect id="Rectangle-1562" stroke-linecap="round" fill="#D8D8D8" x="25" y="49" width="18" height="6"></rect>
                <path d="M44,22 C44,9.8497355 34.1502645,0 22,0 C9.8497355,0 0,9.8497355 0,22 L44,22 Z" id="Oval-1412" stroke-linecap="round" fill="#E4AD40"></path>
            </g>
        </g>
    </g>
</svg>