<?xml version="1.0" encoding="UTF-8" standalone="no"?>
<svg width="60px" height="60px" viewBox="0 0 60 60" version="1.1" xmlns="http://www.w3.org/2000/svg" xmlns:xlink="http://www.w3.org/1999/xlink" xmlns:sketch="http://www.bohemiancoding.com/sketch/ns">
    <!-- Generator: Sketch 3.2.2 (9983) - http://www.bohemiancoding.com/sketch -->
    <title>Deliverybox</title>
    <desc>Created with Sketch.</desc>
    <defs></defs>
    <g id="colored" stroke="none" stroke-width="1" fill="none" fill-rule="evenodd" sketch:type="MSPage">
        <g id="Marketing_sliced" sketch:type="MSLayerGroup" transform="translate(-480.000000, -1080.000000)"></g>
        <g id="Marketing" sketch:type="MSLayerGroup" transform="translate(-478.000000, -1070.000000)" stroke="#314E55" stroke-width="2" stroke-linecap="round" stroke-linejoin="round">
            <g id="Deliverybox" transform="translate(487.000000, 1078.000000)" sketch:type="MSShapeGroup">
                <rect id="Rectangle-1573" fill="#D26CBA" x="2" y="20" width="39" height="26"></rect>
                <rect id="Rectangle-1573" fill="#D26CBA" x="0" y="12" width="43" height="8"></rect>
                <path d="M4,0 L39,0 L43,12 L0,12 L4,0 Z" id="Rectangle-1573" fill="#D26CBA"></path>
                <rect id="Rectangle-1573" fill="#DBCF56" x="13" y="35" width="18" height="11"></rect>
                <rect id="Rectangle-1573" fill="#DBCF56" x="13" y="20" width="18" height="11"></rect>
            </g>
        </g>
    </g>
</svg>