<?xml version="1.0" encoding="UTF-8" standalone="no"?>
<svg width="60px" height="60px" viewBox="0 0 60 60" version="1.1" xmlns="http://www.w3.org/2000/svg" xmlns:xlink="http://www.w3.org/1999/xlink" xmlns:sketch="http://www.bohemiancoding.com/sketch/ns">
    <!-- Generator: Sketch 3.2.2 (9983) - http://www.bohemiancoding.com/sketch -->
    <title>Incomeincrease</title>
    <desc>Created with Sketch.</desc>
    <defs></defs>
    <g id="colored" stroke="none" stroke-width="1" fill="none" fill-rule="evenodd" sketch:type="MSPage">
        <g id="Marketing_sliced" sketch:type="MSLayerGroup" transform="translate(-120.000000, -600.000000)"></g>
        <g id="Marketing" sketch:type="MSLayerGroup" transform="translate(-118.000000, -590.000000)" stroke="#314E55" stroke-width="2" stroke-linecap="round" stroke-linejoin="round">
            <g id="Incomeincrease" transform="translate(120.000000, 592.000000)" sketch:type="MSShapeGroup">
                <circle id="Oval-1382" fill="#73C9C9" cx="28" cy="28" r="24"></circle>
                <path d="M37,17 L44,17 L44,24" id="Rectangle-1501"></path>
                <path d="M43.9229783,17 L29.4676444,31.455334 L23.6443644,25.632054 L10.9428324,38.333586" id="Path-3399"></path>
                <path d="M56,28 C56,12.536027 43.463973,0 28,0 M0,28 C0,43.463973 12.536027,56 28,56" id="Oval-1386"></path>
            </g>
        </g>
    </g>
</svg>