<?xml version="1.0" encoding="UTF-8" standalone="no"?>
<svg width="60px" height="60px" viewBox="0 0 60 60" version="1.1" xmlns="http://www.w3.org/2000/svg" xmlns:xlink="http://www.w3.org/1999/xlink" xmlns:sketch="http://www.bohemiancoding.com/sketch/ns">
    <!-- Generator: Sketch 3.2.2 (9983) - http://www.bohemiancoding.com/sketch -->
    <title>Mastercard</title>
    <desc>Created with Sketch.</desc>
    <defs></defs>
    <g id="colored" stroke="none" stroke-width="1" fill="none" fill-rule="evenodd" sketch:type="MSPage">
        <g id="Marketing_sliced" sketch:type="MSLayerGroup" transform="translate(-120.000000, -720.000000)"></g>
        <g id="Marketing" sketch:type="MSLayerGroup" transform="translate(-118.000000, -710.000000)" stroke="#314E55" stroke-width="2" stroke-linejoin="round">
            <g id="Mastercard" transform="translate(148.000000, 742.000000) scale(1, -1) translate(-148.000000, -742.000000) translate(120.000000, 724.000000)" sketch:type="MSShapeGroup">
                <rect id="Rectangle-1510" stroke-linecap="round" fill="#EA86A5" x="0" y="0" width="56" height="36" rx="4"></rect>
                <rect id="Rectangle-1511" stroke-linecap="round" fill="#81A4E3" x="0" y="9" width="56" height="8"></rect>
                <path d="M5,22 L24,22" id="Line" stroke-linecap="square"></path>
                <circle id="Oval-1389" stroke-linecap="round" fill="#5ECB66" transform="translate(40.000000, 26.000000) scale(1, -1) translate(-40.000000, -26.000000) " cx="40" cy="26" r="4"></circle>
                <circle id="Oval-1389" stroke-linecap="round" fill="#E65F58" transform="translate(44.000000, 26.000000) scale(1, -1) translate(-44.000000, -26.000000) " cx="44" cy="26" r="4"></circle>
            </g>
        </g>
    </g>
</svg>