<?xml version="1.0" encoding="UTF-8" standalone="no"?>
<svg width="60px" height="60px" viewBox="0 0 60 60" version="1.1" xmlns="http://www.w3.org/2000/svg" xmlns:xlink="http://www.w3.org/1999/xlink" xmlns:sketch="http://www.bohemiancoding.com/sketch/ns">
    <!-- Generator: Sketch 3.2.2 (9983) - http://www.bohemiancoding.com/sketch -->
    <title>Poundcoin</title>
    <desc>Created with Sketch.</desc>
    <defs></defs>
    <g id="colored" stroke="none" stroke-width="1" fill="none" fill-rule="evenodd" sketch:type="MSPage">
        <g id="Marketing_sliced" sketch:type="MSLayerGroup" transform="translate(-360.000000, -240.000000)"></g>
        <g id="Marketing" sketch:type="MSLayerGroup" transform="translate(-358.000000, -230.000000)" stroke="#314E55" stroke-width="2" stroke-linejoin="round">
            <g id="Poundcoin" transform="translate(361.000000, 233.000000)" sketch:type="MSShapeGroup">
                <circle id="Oval-1362" stroke-linecap="round" fill="#DBCF56" cx="27" cy="27" r="27"></circle>
                <circle id="Oval-1363" stroke-linecap="round" fill="#E4AD40" cx="27" cy="27" r="23"></circle>
                <path d="M45,6.99999999 L42.5447798,9.52253441" id="Path-3255" stroke-linecap="round"></path>
                <path d="M15,47.126168 L12.5447798,49.6487025" id="Path-3255" stroke-linecap="round"></path>
                <path d="M16,30 L26.0498753,30" id="Line" stroke-linecap="square"></path>
                <path d="M36.2562523,40.0682201 L19.0019245,40.0682201 L19,17.9007584 C19,14.0895748 22.1331567,11 26,11 C29.8659932,11 33,14.0899407 33,17.9007584" id="Rectangle-1476" stroke-linecap="round"></path>
            </g>
        </g>
    </g>
</svg>