<?xml version="1.0" encoding="UTF-8" standalone="no"?>
<svg width="60px" height="60px" viewBox="0 0 60 60" version="1.1" xmlns="http://www.w3.org/2000/svg" xmlns:xlink="http://www.w3.org/1999/xlink" xmlns:sketch="http://www.bohemiancoding.com/sketch/ns">
    <!-- Generator: Sketch 3.2.2 (9983) - http://www.bohemiancoding.com/sketch -->
    <title>Timer</title>
    <desc>Created with Sketch.</desc>
    <defs></defs>
    <g id="colored" stroke="none" stroke-width="1" fill="none" fill-rule="evenodd" sketch:type="MSPage">
        <g id="Marketing_sliced" sketch:type="MSLayerGroup" transform="translate(-600.000000, -1320.000000)"></g>
        <g id="Marketing" sketch:type="MSLayerGroup" transform="translate(-598.000000, -1310.000000)" stroke="#314E55" stroke-width="2" stroke-linejoin="round">
            <g id="Timer" transform="translate(605.000000, 1311.000000)" sketch:type="MSShapeGroup">
                <circle id="Oval-1448" stroke-linecap="round" fill="#D8D8D8" cx="24" cy="34" r="24"></circle>
                <circle id="Oval-1446" stroke-linecap="round" fill="#73C9C9" cx="24" cy="34" r="20"></circle>
                <path d="M22.9999997,34.0000002 L13.2099759,22.8785221" id="Path-3681" stroke-linecap="round"></path>
                <rect id="Rectangle-1661" stroke-linecap="round" fill="#D26CBA" x="16" y="0" width="16" height="7"></rect>
                <path d="M24,10 L24,7" id="Line" stroke-linecap="square"></path>
            </g>
        </g>
    </g>
</svg>