<?xml version="1.0" encoding="UTF-8" standalone="no"?>
<svg width="60px" height="60px" viewBox="0 0 60 60" version="1.1" xmlns="http://www.w3.org/2000/svg" xmlns:xlink="http://www.w3.org/1999/xlink" xmlns:sketch="http://www.bohemiancoding.com/sketch/ns">
    <!-- Generator: Sketch 3.2.2 (9983) - http://www.bohemiancoding.com/sketch -->
    <title>Comissiondown</title>
    <desc>Created with Sketch.</desc>
    <defs></defs>
    <g id="filled" stroke="none" stroke-width="1" fill="none" fill-rule="evenodd" sketch:type="MSPage">
        <g id="Marketing_sliced" sketch:type="MSLayerGroup" transform="translate(-600.000000, -600.000000)"></g>
        <g id="Marketing" sketch:type="MSLayerGroup" transform="translate(-598.000000, -590.000000)" stroke="#535353" stroke-width="2" stroke-linejoin="round">
            <g id="Comissiondown" transform="translate(630.500000, 619.500000) scale(1, -1) translate(-630.500000, -619.500000) translate(608.000000, 595.000000)" sketch:type="MSShapeGroup">
                <rect id="Rectangle-1505" stroke-linecap="round" fill="#D8D8D8" x="0" y="21" width="28" height="28" rx="8"></rect>
                <g id="Line-+-Oval-1384-+-Oval-1384" transform="translate(14.500000, 35.500000) scale(-1, 1) translate(-14.500000, -35.500000) translate(5.000000, 28.000000)" stroke-linecap="round">
                    <path d="M17,0 L2.08356611,14.9164343" id="Line"></path>
                    <circle id="Oval-1384" cx="3.5" cy="3" r="3"></circle>
                    <circle id="Oval-1384" cx="15.5" cy="12" r="3"></circle>
                </g>
                <g id="Line-+-Rectangle-1505" transform="translate(29.000000, 0.000000)" stroke-linecap="round">
                    <path d="M8,35 L8,3" id="Line"></path>
                    <path d="M3,3 L13,3 L13,13" id="Rectangle-1505" transform="translate(8.000000, 8.000000) rotate(-45.000000) translate(-8.000000, -8.000000) "></path>
                </g>
                <path d="M28,35 L37,35" id="Line" stroke-linecap="square"></path>
            </g>
        </g>
    </g>
</svg>