<?xml version="1.0" encoding="UTF-8" standalone="no"?>
<svg width="60px" height="60px" viewBox="0 0 60 60" version="1.1" xmlns="http://www.w3.org/2000/svg" xmlns:xlink="http://www.w3.org/1999/xlink" xmlns:sketch="http://www.bohemiancoding.com/sketch/ns">
    <!-- Generator: Sketch 3.2.2 (9983) - http://www.bohemiancoding.com/sketch -->
    <title>Incomedecrease</title>
    <desc>Created with Sketch.</desc>
    <defs></defs>
    <g id="filled" stroke="none" stroke-width="1" fill="none" fill-rule="evenodd" sketch:type="MSPage">
        <g id="Marketing_sliced" sketch:type="MSLayerGroup" transform="translate(-240.000000, -600.000000)"></g>
        <g id="Marketing" sketch:type="MSLayerGroup" transform="translate(-238.000000, -590.000000)" stroke="#535353" stroke-width="2" stroke-linecap="round" stroke-linejoin="round">
            <g id="Incomedecrease" transform="translate(229.000000, 580.000000)" sketch:type="MSShapeGroup">
                <circle id="Oval-1382" fill="#D8D8D8" cx="40" cy="40" r="24"></circle>
                <g id="Rectangle-1501-+-Path-3399" transform="translate(41.061570, 40.040469) rotate(-180.000000) translate(-41.061570, -40.040469) translate(24.061570, 29.040469)">
                    <path d="M27,0 L34,0 L34,7" id="Rectangle-1501"></path>
                    <path d="M33.9229783,0 L19.4676444,14.455334 L13.6443644,8.63205401 L0.942832424,21.333586" id="Path-3399"></path>
                </g>
                <path d="M68,40 C68,24.536027 55.463973,12 40,12 M12,40 C12,55.463973 24.536027,68 40,68" id="Oval-1386" transform="translate(40.000000, 40.000000) rotate(-45.000000) translate(-40.000000, -40.000000) "></path>
            </g>
        </g>
    </g>
</svg>